{
  "type": "minecraft:chest",
  "pools": [
    {
      "rolls": 8,
      "entries": [
        {
          "type": "minecraft:item",
          "name": "minecraft:iron_ingot"
        },
        {
          "type": "minecraft:item",
          "name": "tardis:tungsten_plate_slab"
        },
        {
          "type": "minecraft:item",
          "name": "tardis:alabaster_slab"
        },
        {
          "type": "minecraft:item",
          "weight" : 1,
          "name": "tardis:wirebox"
        },
        {
          "type": "minecraft:item",
          "weight" : 1,
          "name": "tardis:air_lock"
        },
        {
          "type": "minecraft:item",
          "name": "tardis:wire_hang"
        },
        {
          "type": "minecraft:item",
          "weight" : 2,
          "name": "tardis:circuits"
        },
        {
          "type": "minecraft:item",
          "functions": [
            {
              "function": "minecraft:set_count",
              "count": {
                "min": 1.0,
                "max": 5.0,
                "type": "minecraft:uniform"
              }
            }
          ],
          "name": "minecraft:carrot"
        },
        {
          "type": "minecraft:item",
          "weight" : 15,
          "name": "minecraft:gold_ingot"
        },
        {
          "type": "minecraft:item",
          "functions": [
            {
              "function": "minecraft:set_count",
              "count": {
                "min": 1.0,
                "max": 4.0,
                "type": "minecraft:uniform"
              }
            }
          ],
          "name": "tardis:xion_crystal"
        },
        {
          "type": "minecraft:item",
          "functions": [
            {
              "function": "minecraft:set_count",
              "count": {
                "min": 1.0,
                "max": 4.0,
                "type": "minecraft:uniform"
              }
            }
          ],
          "name": "tardis:mercury_bottle"
        },
        {
          "type": "minecraft:item",
          "weight" : 7,
          "functions": [
            {
              "function": "minecraft:set_count",
              "count": {
                "min": 1.0,
                "max": 10.0,
                "type": "minecraft:uniform"
              }
            }
          ],
          "name": "minecraft:bread"
        }
      ]
    },
    {
	    "rolls": 1,
		"entries":[
			{
				"type":"item",
				"name":"tardis:space_helm"
			},
			{
				"type":"item",
				"name":"tardis:space_chest"
			},
			{
				"type":"item",
				"name":"tardis:space_legs"
			},
			{
				"type":"item",
				"name":"tardis:space_boots"
			}
		]
	}
  ]
}