[
  {
    "block": {
      "Properties": {
        "waterlogged": "false",
        "shape": "straight",
        "half": "bottom",
        "facing": "south"
      },
      "Name": "minecraft:acacia_stairs"
    },
    "x": -2,
    "y": 2,
    "z": -5
  },
  {
    "block": {
      "Properties": {
        "waterlogged": "false",
        "shape": "straight",
        "half": "bottom",
        "facing": "south"
      },
      "Name": "minecraft:acacia_stairs"
    },
    "x": -1,
    "y": 2,
    "z": -5
  },
  {
    "block": {
      "Properties": {
        "waterlogged": "false",
        "shape": "straight",
        "half": "bottom",
        "facing": "south"
      },
      "Name": "minecraft:acacia_stairs"
    },
    "x": 0,
    "y": 2,
    "z": -5
  },
  {
    "block": {
      "Properties": {
        "waterlogged": "false",
        "shape": "straight",
        "half": "bottom",
        "facing": "south"
      },
      "Name": "minecraft:acacia_stairs"
    },
    "x": 1,
    "y": 2,
    "z": -5
  },
  {
    "block": {
      "Properties": {
        "waterlogged": "false",
        "shape": "straight",
        "half": "bottom",
        "facing": "south"
      },
      "Name": "minecraft:acacia_stairs"
    },
    "x": 2,
    "y": 2,
    "z": -5
  },
  {
    "block": {
      "Name": "minecraft:orange_terracotta"
    },
    "x": -1,
    "y": -1,
    "z": -4
  },
  {
    "block": {
      "Name": "minecraft:orange_terracotta"
    },
    "x": 0,
    "y": -1,
    "z": -4
  },
  {
    "block": {
      "Name": "minecraft:orange_terracotta"
    },
    "x": 1,
    "y": -1,
    "z": -4
  },
  {
    "block": {
      "Name": "minecraft:orange_terracotta"
    },
    "x": -1,
    "y": 0,
    "z": -4
  },
  {
    "block": {
      "Properties": {
        "west": "true",
        "waterlogged": "false",
        "south": "false",
        "north": "false",
        "east": "true"
      },
      "Name": "minecraft:glass_pane"
    },
    "x": 0,
    "y": 0,
    "z": -4
  },
  {
    "block": {
      "Name": "minecraft:orange_terracotta"
    },
    "x": 1,
    "y": 0,
    "z": -4
  },
  {
    "block": {
      "Name": "minecraft:orange_terracotta"
    },
    "x": -1,
    "y": 1,
    "z": -4
  },
  {
    "block": {
      "Name": "minecraft:orange_terracotta"
    },
    "x": 0,
    "y": 1,
    "z": -4
  },
  {
    "block": {
      "Name": "minecraft:orange_terracotta"
    },
    "x": 1,
    "y": 1,
    "z": -4
  },
  {
    "block": {
      "Properties": {
        "waterlogged": "false",
        "shape": "straight",
        "half": "bottom",
        "facing": "east"
      },
      "Name": "minecraft:acacia_stairs"
    },
    "x": -3,
    "y": 2,
    "z": -4
  },
  {
    "block": {
      "Name": "minecraft:acacia_planks"
    },
    "x": -2,
    "y": 2,
    "z": -4
  },
  {
    "block": {
      "Name": "minecraft:acacia_planks"
    },
    "x": -1,
    "y": 2,
    "z": -4
  },
  {
    "block": {
      "Name": "minecraft:acacia_planks"
    },
    "x": 0,
    "y": 2,
    "z": -4
  },
  {
    "block": {
      "Name": "minecraft:acacia_planks"
    },
    "x": 1,
    "y": 2,
    "z": -4
  },
  {
    "block": {
      "Name": "minecraft:acacia_planks"
    },
    "x": 2,
    "y": 2,
    "z": -4
  },
  {
    "block": {
      "Properties": {
        "waterlogged": "false",
        "shape": "straight",
        "half": "bottom",
        "facing": "west"
      },
      "Name": "minecraft:acacia_stairs"
    },
    "x": 3,
    "y": 2,
    "z": -4
  },
  {
    "block": {
      "Properties": {
        "waterlogged": "false",
        "shape": "outer_right",
        "half": "bottom",
        "facing": "east"
      },
      "Name": "minecraft:acacia_stairs"
    },
    "x": -2,
    "y": 3,
    "z": -4
  },
  {
    "block": {
      "Properties": {
        "waterlogged": "false",
        "shape": "straight",
        "half": "bottom",
        "facing": "south"
      },
      "Name": "minecraft:acacia_stairs"
    },
    "x": -1,
    "y": 3,
    "z": -4
  },
  {
    "block": {
      "Properties": {
        "waterlogged": "false",
        "shape": "straight",
        "half": "bottom",
        "facing": "south"
      },
      "Name": "minecraft:acacia_stairs"
    },
    "x": 0,
    "y": 3,
    "z": -4
  },
  {
    "block": {
      "Properties": {
        "waterlogged": "false",
        "shape": "straight",
        "half": "bottom",
        "facing": "south"
      },
      "Name": "minecraft:acacia_stairs"
    },
    "x": 1,
    "y": 3,
    "z": -4
  },
  {
    "block": {
      "Properties": {
        "waterlogged": "false",
        "shape": "outer_right",
        "half": "bottom",
        "facing": "south"
      },
      "Name": "minecraft:acacia_stairs"
    },
    "x": 2,
    "y": 3,
    "z": -4
  },
  {
    "block": {
      "Name": "minecraft:orange_terracotta"
    },
    "x": -2,
    "y": -1,
    "z": -3
  },
  {
    "block": {
      "Properties": {
        "part": "head",
        "occupied": "false",
        "facing": "north"
      },
      "Name": "minecraft:red_bed"
    },
    "x": -1,
    "y": -1,
    "z": -3
  },
  {
    "block": {
      "Name": "minecraft:crafting_table"
    },
    "x": 1,
    "y": -1,
    "z": -3
  },
  {
    "block": {
      "Name": "minecraft:orange_terracotta"
    },
    "x": 2,
    "y": -1,
    "z": -3
  },
  {
    "block": {
      "Name": "minecraft:orange_terracotta"
    },
    "x": -2,
    "y": 0,
    "z": -3
  },
  {
    "block": {
      "Name": "minecraft:orange_terracotta"
    },
    "x": 2,
    "y": 0,
    "z": -3
  },
  {
    "block": {
      "Name": "minecraft:orange_terracotta"
    },
    "x": -2,
    "y": 1,
    "z": -3
  },
  {
    "block": {
      "Properties": {
        "facing": "south"
      },
      "Name": "minecraft:wall_torch"
    },
    "x": 0,
    "y": 1,
    "z": -3
  },
  {
    "block": {
      "Name": "minecraft:orange_terracotta"
    },
    "x": 2,
    "y": 1,
    "z": -3
  },
  {
    "block": {
      "Properties": {
        "waterlogged": "false",
        "shape": "straight",
        "half": "bottom",
        "facing": "east"
      },
      "Name": "minecraft:acacia_stairs"
    },
    "x": -3,
    "y": 2,
    "z": -3
  },
  {
    "block": {
      "Name": "minecraft:acacia_planks"
    },
    "x": -2,
    "y": 2,
    "z": -3
  },
  {
    "block": {
      "Name": "minecraft:acacia_planks"
    },
    "x": 2,
    "y": 2,
    "z": -3
  },
  {
    "block": {
      "Properties": {
        "waterlogged": "false",
        "shape": "straight",
        "half": "bottom",
        "facing": "west"
      },
      "Name": "minecraft:acacia_stairs"
    },
    "x": 3,
    "y": 2,
    "z": -3
  },
  {
    "block": {
      "Properties": {
        "waterlogged": "false",
        "shape": "straight",
        "half": "bottom",
        "facing": "east"
      },
      "Name": "minecraft:acacia_stairs"
    },
    "x": -2,
    "y": 3,
    "z": -3
  },
  {
    "block": {
      "Name": "minecraft:acacia_planks"
    },
    "x": -1,
    "y": 3,
    "z": -3
  },
  {
    "block": {
      "Name": "minecraft:acacia_planks"
    },
    "x": 0,
    "y": 3,
    "z": -3
  },
  {
    "block": {
      "Name": "minecraft:acacia_planks"
    },
    "x": 1,
    "y": 3,
    "z": -3
  },
  {
    "block": {
      "Properties": {
        "waterlogged": "false",
        "shape": "straight",
        "half": "bottom",
        "facing": "west"
      },
      "Name": "minecraft:acacia_stairs"
    },
    "x": 2,
    "y": 3,
    "z": -3
  },
  {
    "block": {
      "Properties": {
        "waterlogged": "false",
        "shape": "outer_left",
        "half": "bottom",
        "facing": "south"
      },
      "Name": "minecraft:acacia_stairs"
    },
    "x": -1,
    "y": 4,
    "z": -3
  },
  {
    "block": {
      "Properties": {
        "waterlogged": "false",
        "shape": "straight",
        "half": "bottom",
        "facing": "south"
      },
      "Name": "minecraft:acacia_stairs"
    },
    "x": 0,
    "y": 4,
    "z": -3
  },
  {
    "block": {
      "Properties": {
        "waterlogged": "false",
        "shape": "outer_left",
        "half": "bottom",
        "facing": "west"
      },
      "Name": "minecraft:acacia_stairs"
    },
    "x": 1,
    "y": 4,
    "z": -3
  },
  {
    "block": {
      "Name": "minecraft:orange_terracotta"
    },
    "x": -2,
    "y": -1,
    "z": -2
  },
  {
    "block": {
      "Properties": {
        "part": "foot",
        "occupied": "false",
        "facing": "north"
      },
      "Name": "minecraft:red_bed"
    },
    "x": -1,
    "y": -1,
    "z": -2
  },
  {
    "block": {
      "Name": "minecraft:orange_terracotta"
    },
    "x": 2,
    "y": -1,
    "z": -2
  },
  {
    "block": {
      "Properties": {
        "west": "false",
        "waterlogged": "false",
        "south": "true",
        "north": "true",
        "east": "false"
      },
      "Name": "minecraft:glass_pane"
    },
    "x": -2,
    "y": 0,
    "z": -2
  },
  {
    "block": {
      "Properties": {
        "west": "false",
        "waterlogged": "false",
        "south": "true",
        "north": "true",
        "east": "false"
      },
      "Name": "minecraft:glass_pane"
    },
    "x": 2,
    "y": 0,
    "z": -2
  },
  {
    "block": {
      "Name": "minecraft:orange_terracotta"
    },
    "x": -2,
    "y": 1,
    "z": -2
  },
  {
    "block": {
      "Name": "minecraft:orange_terracotta"
    },
    "x": 2,
    "y": 1,
    "z": -2
  },
  {
    "block": {
      "Properties": {
        "waterlogged": "false",
        "shape": "straight",
        "half": "bottom",
        "facing": "east"
      },
      "Name": "minecraft:acacia_stairs"
    },
    "x": -3,
    "y": 2,
    "z": -2
  },
  {
    "block": {
      "Name": "minecraft:acacia_planks"
    },
    "x": -2,
    "y": 2,
    "z": -2
  },
  {
    "block": {
      "Name": "minecraft:acacia_planks"
    },
    "x": 2,
    "y": 2,
    "z": -2
  },
  {
    "block": {
      "Properties": {
        "waterlogged": "false",
        "shape": "straight",
        "half": "bottom",
        "facing": "west"
      },
      "Name": "minecraft:acacia_stairs"
    },
    "x": 3,
    "y": 2,
    "z": -2
  },
  {
    "block": {
      "Properties": {
        "waterlogged": "false",
        "shape": "straight",
        "half": "bottom",
        "facing": "east"
      },
      "Name": "minecraft:acacia_stairs"
    },
    "x": -2,
    "y": 3,
    "z": -2
  },
  {
    "block": {
      "Name": "minecraft:acacia_planks"
    },
    "x": -1,
    "y": 3,
    "z": -2
  },
  {
    "block": {
      "Name": "minecraft:acacia_planks"
    },
    "x": 0,
    "y": 3,
    "z": -2
  },
  {
    "block": {
      "Name": "minecraft:acacia_planks"
    },
    "x": 1,
    "y": 3,
    "z": -2
  },
  {
    "block": {
      "Properties": {
        "waterlogged": "false",
        "shape": "straight",
        "half": "bottom",
        "facing": "west"
      },
      "Name": "minecraft:acacia_stairs"
    },
    "x": 2,
    "y": 3,
    "z": -2
  },
  {
    "block": {
      "Properties": {
        "waterlogged": "false",
        "shape": "straight",
        "half": "bottom",
        "facing": "east"
      },
      "Name": "minecraft:acacia_stairs"
    },
    "x": -1,
    "y": 4,
    "z": -2
  },
  {
    "block": {
      "Name": "minecraft:acacia_planks"
    },
    "x": 0,
    "y": 4,
    "z": -2
  },
  {
    "block": {
      "Properties": {
        "waterlogged": "false",
        "shape": "straight",
        "half": "bottom",
        "facing": "west"
      },
      "Name": "minecraft:acacia_stairs"
    },
    "x": 1,
    "y": 4,
    "z": -2
  },
  {
    "block": {
      "Name": "minecraft:orange_terracotta"
    },
    "x": -2,
    "y": -1,
    "z": -1
  },
  {
    "block": {
      "Name": "minecraft:orange_terracotta"
    },
    "x": 2,
    "y": -1,
    "z": -1
  },
  {
    "block": {
      "Name": "minecraft:orange_terracotta"
    },
    "x": -2,
    "y": 0,
    "z": -1
  },
  {
    "block": {
      "Name": "minecraft:orange_terracotta"
    },
    "x": 2,
    "y": 0,
    "z": -1
  },
  {
    "block": {
      "Name": "minecraft:orange_terracotta"
    },
    "x": -2,
    "y": 1,
    "z": -1
  },
  {
    "block": {
      "Properties": {
        "facing": "north"
      },
      "Name": "minecraft:wall_torch"
    },
    "x": -1,
    "y": 1,
    "z": -1
  },
  {
    "block": {
      "Properties": {
        "facing": "north"
      },
      "Name": "minecraft:wall_torch"
    },
    "x": 1,
    "y": 1,
    "z": -1
  },
  {
    "block": {
      "Name": "minecraft:orange_terracotta"
    },
    "x": 2,
    "y": 1,
    "z": -1
  },
  {
    "block": {
      "Properties": {
        "waterlogged": "false",
        "shape": "straight",
        "half": "bottom",
        "facing": "east"
      },
      "Name": "minecraft:acacia_stairs"
    },
    "x": -3,
    "y": 2,
    "z": -1
  },
  {
    "block": {
      "Name": "minecraft:acacia_planks"
    },
    "x": -2,
    "y": 2,
    "z": -1
  },
  {
    "block": {
      "Name": "minecraft:acacia_planks"
    },
    "x": 2,
    "y": 2,
    "z": -1
  },
  {
    "block": {
      "Properties": {
        "waterlogged": "false",
        "shape": "straight",
        "half": "bottom",
        "facing": "west"
      },
      "Name": "minecraft:acacia_stairs"
    },
    "x": 3,
    "y": 2,
    "z": -1
  },
  {
    "block": {
      "Properties": {
        "waterlogged": "false",
        "shape": "straight",
        "half": "bottom",
        "facing": "east"
      },
      "Name": "minecraft:acacia_stairs"
    },
    "x": -2,
    "y": 3,
    "z": -1
  },
  {
    "block": {
      "Name": "minecraft:acacia_planks"
    },
    "x": -1,
    "y": 3,
    "z": -1
  },
  {
    "block": {
      "Name": "minecraft:acacia_planks"
    },
    "x": 0,
    "y": 3,
    "z": -1
  },
  {
    "block": {
      "Name": "minecraft:acacia_planks"
    },
    "x": 1,
    "y": 3,
    "z": -1
  },
  {
    "block": {
      "Properties": {
        "waterlogged": "false",
        "shape": "straight",
        "half": "bottom",
        "facing": "west"
      },
      "Name": "minecraft:acacia_stairs"
    },
    "x": 2,
    "y": 3,
    "z": -1
  },
  {
    "block": {
      "Properties": {
        "waterlogged": "false",
        "shape": "outer_left",
        "half": "bottom",
        "facing": "east"
      },
      "Name": "minecraft:acacia_stairs"
    },
    "x": -1,
    "y": 4,
    "z": -1
  },
  {
    "block": {
      "Properties": {
        "waterlogged": "false",
        "shape": "straight",
        "half": "bottom",
        "facing": "north"
      },
      "Name": "minecraft:acacia_stairs"
    },
    "x": 0,
    "y": 4,
    "z": -1
  },
  {
    "block": {
      "Properties": {
        "waterlogged": "false",
        "shape": "outer_left",
        "half": "bottom",
        "facing": "north"
      },
      "Name": "minecraft:acacia_stairs"
    },
    "x": 1,
    "y": 4,
    "z": -1
  },
  {
    "block": {
      "Name": "minecraft:orange_terracotta"
    },
    "x": -1,
    "y": -1,
    "z": 0
  },
  {
    "block": {
      "Name": "minecraft:orange_terracotta"
    },
    "x": 1,
    "y": -1,
    "z": 0
  },
  {
    "block": {
      "Name": "minecraft:orange_terracotta"
    },
    "x": -1,
    "y": 0,
    "z": 0
  },
  {
    "block": {
      "Name": "minecraft:orange_terracotta"
    },
    "x": 1,
    "y": 0,
    "z": 0
  },
  {
    "block": {
      "Name": "minecraft:orange_terracotta"
    },
    "x": -1,
    "y": 1,
    "z": 0
  },
  {
    "block": {
      "Name": "minecraft:orange_terracotta"
    },
    "x": 0,
    "y": 1,
    "z": 0
  },
  {
    "block": {
      "Name": "minecraft:orange_terracotta"
    },
    "x": 1,
    "y": 1,
    "z": 0
  },
  {
    "block": {
      "Properties": {
        "waterlogged": "false",
        "shape": "straight",
        "half": "bottom",
        "facing": "east"
      },
      "Name": "minecraft:acacia_stairs"
    },
    "x": -3,
    "y": 2,
    "z": 0
  },
  {
    "block": {
      "Name": "minecraft:acacia_planks"
    },
    "x": -2,
    "y": 2,
    "z": 0
  },
  {
    "block": {
      "Name": "minecraft:acacia_planks"
    },
    "x": -1,
    "y": 2,
    "z": 0
  },
  {
    "block": {
      "Name": "minecraft:acacia_planks"
    },
    "x": 0,
    "y": 2,
    "z": 0
  },
  {
    "block": {
      "Name": "minecraft:acacia_planks"
    },
    "x": 1,
    "y": 2,
    "z": 0
  },
  {
    "block": {
      "Name": "minecraft:acacia_planks"
    },
    "x": 2,
    "y": 2,
    "z": 0
  },
  {
    "block": {
      "Properties": {
        "waterlogged": "false",
        "shape": "straight",
        "half": "bottom",
        "facing": "west"
      },
      "Name": "minecraft:acacia_stairs"
    },
    "x": 3,
    "y": 2,
    "z": 0
  },
  {
    "block": {
      "Properties": {
        "waterlogged": "false",
        "shape": "outer_left",
        "half": "bottom",
        "facing": "east"
      },
      "Name": "minecraft:acacia_stairs"
    },
    "x": -2,
    "y": 3,
    "z": 0
  },
  {
    "block": {
      "Properties": {
        "waterlogged": "false",
        "shape": "straight",
        "half": "bottom",
        "facing": "north"
      },
      "Name": "minecraft:acacia_stairs"
    },
    "x": -1,
    "y": 3,
    "z": 0
  },
  {
    "block": {
      "Properties": {
        "waterlogged": "false",
        "shape": "straight",
        "half": "bottom",
        "facing": "north"
      },
      "Name": "minecraft:acacia_stairs"
    },
    "x": 0,
    "y": 3,
    "z": 0
  },
  {
    "block": {
      "Properties": {
        "waterlogged": "false",
        "shape": "straight",
        "half": "bottom",
        "facing": "north"
      },
      "Name": "minecraft:acacia_stairs"
    },
    "x": 1,
    "y": 3,
    "z": 0
  },
  {
    "block": {
      "Properties": {
        "waterlogged": "false",
        "shape": "outer_left",
        "half": "bottom",
        "facing": "north"
      },
      "Name": "minecraft:acacia_stairs"
    },
    "x": 2,
    "y": 3,
    "z": 0
  },
  {
    "block": {
      "Properties": {
        "waterlogged": "false",
        "shape": "straight",
        "half": "bottom",
        "facing": "north"
      },
      "Name": "minecraft:acacia_stairs"
    },
    "x": -2,
    "y": 2,
    "z": 1
  },
  {
    "block": {
      "Properties": {
        "waterlogged": "false",
        "shape": "straight",
        "half": "bottom",
        "facing": "north"
      },
      "Name": "minecraft:acacia_stairs"
    },
    "x": -1,
    "y": 2,
    "z": 1
  },
  {
    "block": {
      "Properties": {
        "waterlogged": "false",
        "shape": "straight",
        "half": "bottom",
        "facing": "north"
      },
      "Name": "minecraft:acacia_stairs"
    },
    "x": 0,
    "y": 2,
    "z": 1
  },
  {
    "block": {
      "Properties": {
        "waterlogged": "false",
        "shape": "straight",
        "half": "bottom",
        "facing": "north"
      },
      "Name": "minecraft:acacia_stairs"
    },
    "x": 1,
    "y": 2,
    "z": 1
  },
  {
    "block": {
      "Properties": {
        "waterlogged": "false",
        "shape": "straight",
        "half": "bottom",
        "facing": "north"
      },
      "Name": "minecraft:acacia_stairs"
    },
    "x": 2,
    "y": 2,
    "z": 1
  }
]