{
	"credit": "Made with Blockbench",
	"texture_size": [64, 64],
	"textures": {
		"0": "tardis:block/plaque",
		"particle": "tardis:block/plaque"
	},
	"elements": [
		{
			"from": [0.01664, 3.33056, 14.84288],
			"to": [15.98336, 11.31392, 16.17344],
			"rotation": {"angle": 0, "axis": "y", "origin": [8, 5.32224, 8]},
			"faces": {
				"north": {"uv": [0.5, 0.5, 6.5, 3.5], "texture": "#0"},
				"east": {"uv": [12.5, 0.5, 13, 3.5], "texture": "#0"},
				"south": {"uv": [6.5, 0.5, 12.5, 3.5], "texture": "#0"},
				"west": {"uv": [0, 0.5, 0.5, 3.5], "texture": "#0"},
				"up": {"uv": [0.5, 0, 6.5, 0.5], "texture": "#0"},
				"down": {"uv": [6.5, 0, 12.5, 0.5], "texture": "#0"}
			}
		}
	],
	"display": {
		"thirdperson_righthand": {
			"rotation": [0, -180, 0],
			"translation": [0, 1.75, 4.5],
			"scale": [0.5, 0.5, 0.5]
		},
		"thirdperson_lefthand": {
			"rotation": [0, -180, 0],
			"translation": [0, 1.75, 4.5],
			"scale": [0.5, 0.5, 0.5]
		},
		"firstperson_righthand": {
			"rotation": [-180, 90, 120],
			"translation": [0, 0, -6.25]
		},
		"firstperson_lefthand": {
			"rotation": [-180, 90, 120],
			"translation": [0, 0, -6.25]
		},
		"ground": {
			"scale": [0.5, 0.5, 0.5]
		},
		"gui": {
			"rotation": [30, 135, 0],
			"translation": [-5.25, -1.75, 0]
		},
		"head": {
			"translation": [0, 1, -14.5]
		},
		"fixed": {
			"translation": [0, 0, -8.25]
		}
	}
}