{
  "parent": "block/slab_top",
  "textures": {
    "bottom": "tardis:block/technology/tungsten_plate",
    "top": "tardis:block/technology/tungsten_plate",
    "side": "tardis:block/technology/tungsten_plate_slab"
  }
}
