{
  "variants": {
    "facing=north": {
      "y": 0,
      "model": "tardis:block/neutronic_spectrometer"
    },
    "facing=east": {
      "y": 90,
      "model": "tardis:block/neutronic_spectrometer"
    },
    "facing=south": {
      "y": 180,
      "model": "tardis:block/neutronic_spectrometer"
    },
    "facing=west": {
      "y": 270,
      "model": "tardis:block/neutronic_spectrometer"
    }
  }
}