{
    "variants": {
		"facing=north":{
			"model": "tardis:block/psychic_cube",
			"y": 0
		},
		"facing=east":{
			"model": "tardis:block/psychic_cube",
			"y": 90
		},
		"facing=south":{
			"model": "tardis:block/psychic_cube",
			"y": 180
		},
		"facing=west":{
			"model": "tardis:block/psychic_cube",
			"y": 270
		}
	}
}