{
	"credit": "Made with Blockbench",
	"textures": {
		"0": "tardis:item/sonic_cane",
		"particle": "tardis:item/sonic_cane"
	},
	"elements": [
		{
			"from": [7.7495, 30.48819, 7.09794],
			"to": [8.2495, 30.98819, 7.59794],
			"rotation": {"angle": 22.5, "axis": "x", "origin": [7.9995, 31.19119, 7.98864]},
			"faces": {
				"north": {"uv": [9.5, 10, 10, 10], "rotation": 270, "texture": "#0"},
				"east": {"uv": [9.5, 10, 10, 10], "rotation": 270, "texture": "#0"},
				"south": {"uv": [9.5, 10, 10, 10], "rotation": 270, "texture": "#0"},
				"west": {"uv": [9.5, 10, 10, 10], "rotation": 270, "texture": "#0"},
				"up": {"uv": [9.5, 10, 10, 10], "rotation": 180, "texture": "#0"},
				"down": {"uv": [9.5, 10, 10, 10], "texture": "#0"}
			}
		},
		{
			"from": [7.65, 29.15, 7.35],
			"to": [8.35, 30.15, 8.65],
			"rotation": {"angle": 45, "axis": "y", "origin": [8, 25.25, 8]},
			"faces": {
				"north": {"uv": [14.5, 3.5, 15.5, 5.5], "texture": "#0"},
				"east": {"uv": [15, 4.5, 15, 4.5], "texture": "#0"},
				"south": {"uv": [14.5, 3.5, 15.5, 5.5], "texture": "#0"},
				"west": {"uv": [15, 4.5, 15, 4.5], "texture": "#0"},
				"up": {"uv": [15, 4.5, 15, 4.5], "texture": "#0"},
				"down": {"uv": [15, 4.5, 15, 4.5], "texture": "#0"}
			}
		},
		{
			"from": [7.55, 30.25, 7.55],
			"to": [8.45, 30.75, 8.45],
			"rotation": {"angle": 0, "axis": "y", "origin": [8, 25.25, 8]},
			"faces": {
				"north": {"uv": [7, 2, 8, 3], "texture": "#0"},
				"east": {"uv": [7, 2, 8, 3], "texture": "#0"},
				"south": {"uv": [7, 2, 8, 3], "texture": "#0"},
				"west": {"uv": [7, 2, 8, 3], "texture": "#0"},
				"up": {"uv": [7, 2, 8, 3], "texture": "#0"},
				"down": {"uv": [7, 2, 8, 3], "texture": "#0"}
			}
		},
		{
			"from": [7.65, 29.15, 7.35],
			"to": [8.35, 30.15, 8.65],
			"rotation": {"angle": -45, "axis": "y", "origin": [8, 25.25, 8]},
			"faces": {
				"north": {"uv": [14.5, 3.5, 15.5, 5.5], "texture": "#0"},
				"east": {"uv": [15, 4.5, 15, 4.5], "texture": "#0"},
				"south": {"uv": [14.5, 3.5, 15.5, 5.5], "texture": "#0"},
				"west": {"uv": [15, 4.5, 15, 4.5], "texture": "#0"},
				"up": {"uv": [15, 4.5, 15, 4.5], "texture": "#0"},
				"down": {"uv": [15, 4.5, 15, 4.5], "texture": "#0"}
			}
		},
		{
			"from": [7.75, 30.15, 7.75],
			"to": [8.25, 30.35, 8.25],
			"rotation": {"angle": 0, "axis": "y", "origin": [8, 25.25, 8]},
			"faces": {
				"north": {"uv": [14.5, 3.5, 15.5, 5.5], "texture": "#0"},
				"east": {"uv": [15, 4.5, 15, 4.5], "texture": "#0"},
				"south": {"uv": [14.5, 3.5, 15.5, 5.5], "texture": "#0"},
				"west": {"uv": [15, 4.5, 15, 4.5], "texture": "#0"},
				"up": {"uv": [15, 4.5, 15, 4.5], "texture": "#0"},
				"down": {"uv": [15, 4.5, 15, 4.5], "texture": "#0"}
			}
		},
		{
			"from": [7.7, 30.95, 7.7],
			"to": [8.3, 31.45, 8.3],
			"rotation": {"angle": 0, "axis": "y", "origin": [8, 25.25, 8]},
			"faces": {
				"north": {"uv": [7, 2, 8, 3], "texture": "#0"},
				"east": {"uv": [7, 2, 8, 3], "texture": "#0"},
				"south": {"uv": [7, 2, 8, 3], "texture": "#0"},
				"west": {"uv": [7, 2, 8, 3], "texture": "#0"},
				"up": {"uv": [7, 2, 8, 3], "texture": "#0"},
				"down": {"uv": [7, 2, 8, 3], "texture": "#0"}
			}
		},
		{
			"from": [7.8, 30.75, 7.8],
			"to": [8.2, 30.95, 8.2],
			"rotation": {"angle": 0, "axis": "y", "origin": [8, 25.25, 8]},
			"faces": {
				"north": {"uv": [7, 2, 8, 3], "texture": "#0"},
				"east": {"uv": [7, 2, 8, 3], "texture": "#0"},
				"south": {"uv": [7, 2, 8, 3], "texture": "#0"},
				"west": {"uv": [7, 2, 8, 3], "texture": "#0"},
				"up": {"uv": [7, 2, 8, 3], "texture": "#0"},
				"down": {"uv": [7, 2, 8, 3], "texture": "#0"}
			}
		},
		{
			"from": [7.2, 24.9, 7.7],
			"to": [8.8, 29.65, 8.3],
			"rotation": {"angle": 0, "axis": "y", "origin": [8, 25, 8]},
			"faces": {
				"north": {"uv": [15, 14, 16, 15], "texture": "#0"},
				"east": {"uv": [15, 14, 16, 15], "texture": "#0"},
				"south": {"uv": [15, 14, 16, 15], "texture": "#0"},
				"west": {"uv": [15, 14, 16, 15], "texture": "#0"},
				"up": {"uv": [15, 14, 16, 15], "texture": "#0"},
				"down": {"uv": [15, 14, 16, 15], "texture": "#0"}
			}
		},
		{
			"from": [7.25369, 24.9, 7.72205],
			"to": [7.85369, 25.4, 8.32205],
			"rotation": {"angle": 45, "axis": "y", "origin": [8.05369, 25, 8.02205]},
			"faces": {
				"north": {"uv": [16, 14, 16, 14], "texture": "#0"},
				"east": {"uv": [16, 14, 16, 14], "texture": "#0"},
				"south": {"uv": [16, 14, 16, 14], "texture": "#0"},
				"west": {"uv": [16, 14, 16, 14], "texture": "#0"},
				"up": {"uv": [16, 14, 16, 14], "texture": "#0"},
				"down": {"uv": [16, 14, 16, 14], "texture": "#0"}
			}
		},
		{
			"from": [7.69108, 24.89989, 8.2224],
			"to": [8.29108, 25.39989, 8.8224],
			"rotation": {"angle": 45, "axis": "y", "origin": [7.91508, 24.99989, 7.94693]},
			"faces": {
				"north": {"uv": [16, 14, 16, 14], "texture": "#0"},
				"east": {"uv": [16, 14, 16, 14], "texture": "#0"},
				"south": {"uv": [16, 14, 16, 14], "texture": "#0"},
				"west": {"uv": [16, 14, 16, 14], "texture": "#0"},
				"up": {"uv": [16, 14, 16, 14], "texture": "#0"},
				"down": {"uv": [16, 14, 16, 14], "texture": "#0"}
			}
		},
		{
			"from": [8.26648, 24.89997, 7.66446],
			"to": [8.86648, 25.39997, 8.26446],
			"rotation": {"angle": 45, "axis": "y", "origin": [8.02251, 24.99989, 8.11577]},
			"faces": {
				"north": {"uv": [15, 14, 16, 15], "texture": "#0"},
				"east": {"uv": [15, 14, 16, 15], "texture": "#0"},
				"south": {"uv": [15, 14, 16, 15], "texture": "#0"},
				"west": {"uv": [15, 14, 16, 15], "texture": "#0"},
				"up": {"uv": [15, 14, 16, 15], "texture": "#0"},
				"down": {"uv": [15, 14, 16, 15], "texture": "#0"}
			}
		},
		{
			"from": [7.66435, 24.9004, 7.13352],
			"to": [8.26435, 25.4004, 7.73352],
			"rotation": {"angle": 45, "axis": "y", "origin": [8.11566, 25.00033, 7.97749]},
			"faces": {
				"north": {"uv": [15, 14, 16, 15], "texture": "#0"},
				"east": {"uv": [15, 14, 16, 15], "texture": "#0"},
				"south": {"uv": [15, 14, 16, 15], "texture": "#0"},
				"west": {"uv": [15, 14, 16, 15], "texture": "#0"},
				"up": {"uv": [15, 14, 16, 15], "texture": "#0"},
				"down": {"uv": [15, 14, 16, 15], "texture": "#0"}
			}
		},
		{
			"from": [7.17769, 24.9, 7.64658],
			"to": [7.77769, 25.4, 8.24658],
			"rotation": {"angle": 45, "axis": "y", "origin": [7.97769, 25, 7.94658]},
			"faces": {
				"north": {"uv": [15, 14, 16, 15], "texture": "#0"},
				"east": {"uv": [15, 14, 16, 15], "texture": "#0"},
				"south": {"uv": [15, 14, 16, 15], "texture": "#0"},
				"west": {"uv": [15, 14, 16, 15], "texture": "#0"},
				"up": {"uv": [15, 14, 16, 15], "texture": "#0"},
				"down": {"uv": [15, 14, 16, 15], "texture": "#0"}
			}
		},
		{
			"from": [7.64658, 24.89981, 8.22224],
			"to": [8.24658, 25.39981, 8.82224],
			"rotation": {"angle": 45, "axis": "y", "origin": [7.94658, 24.99981, 8.02224]},
			"faces": {
				"north": {"uv": [15, 14, 16, 15], "texture": "#0"},
				"east": {"uv": [15, 14, 16, 15], "texture": "#0"},
				"south": {"uv": [15, 14, 16, 15], "texture": "#0"},
				"west": {"uv": [15, 14, 16, 15], "texture": "#0"},
				"up": {"uv": [15, 14, 16, 15], "texture": "#0"},
				"down": {"uv": [15, 14, 16, 15], "texture": "#0"}
			}
		},
		{
			"from": [8.22224, 24.90008, 7.75342],
			"to": [8.82224, 25.40008, 8.35342],
			"rotation": {"angle": 45, "axis": "y", "origin": [8.02224, 25.00008, 8.05342]},
			"faces": {
				"north": {"uv": [16, 14, 16, 14], "texture": "#0"},
				"east": {"uv": [16, 14, 16, 14], "texture": "#0"},
				"south": {"uv": [16, 14, 16, 14], "texture": "#0"},
				"west": {"uv": [16, 14, 16, 14], "texture": "#0"},
				"up": {"uv": [16, 14, 16, 14], "texture": "#0"},
				"down": {"uv": [16, 14, 16, 14], "texture": "#0"}
			}
		},
		{
			"from": [7.79739, 24.9003, 7.15923],
			"to": [8.39739, 25.4003, 7.75923],
			"rotation": {"angle": 45, "axis": "y", "origin": [8.09767, 25.00011, 8.02158]},
			"faces": {
				"north": {"uv": [15, 13, 16, 14], "texture": "#0"},
				"east": {"uv": [16, 14, 16, 14], "texture": "#0"},
				"south": {"uv": [16, 14, 16, 14], "texture": "#0"},
				"west": {"uv": [16, 14, 16, 14], "texture": "#0"},
				"up": {"uv": [16, 14, 16, 14], "rotation": 270, "texture": "#0"},
				"down": {"uv": [16, 14, 16, 14], "rotation": 90, "texture": "#0"}
			}
		},
		{
			"from": [7.2, 25.4, 7.7],
			"to": [8.8, 29.65, 8.3],
			"shade": false,
			"rotation": {"angle": -45, "axis": "y", "origin": [8, 25, 8]},
			"faces": {
				"north": {"uv": [15, 0, 16, 2], "texture": "#0"},
				"east": {"uv": [15, 0, 16, 2], "texture": "#0"},
				"south": {"uv": [15, 0, 16, 2], "texture": "#0"},
				"west": {"uv": [15, 0, 16, 2], "texture": "#0"},
				"up": {"uv": [15, 0, 16, 2], "texture": "#0"},
				"down": {"uv": [15, 0, 16, 2], "texture": "#0"}
			}
		},
		{
			"from": [7.2, 25.4, 7.7],
			"to": [8.8, 29.65, 8.3],
			"shade": false,
			"rotation": {"angle": 45, "axis": "y", "origin": [8, 25, 8]},
			"faces": {
				"north": {"uv": [15, 0, 16, 2], "texture": "#0"},
				"east": {"uv": [15, 0, 16, 2], "texture": "#0"},
				"south": {"uv": [15, 0, 16, 2], "texture": "#0"},
				"west": {"uv": [15, 0, 16, 2], "texture": "#0"},
				"up": {"uv": [15, 0, 16, 2], "texture": "#0"},
				"down": {"uv": [15, 0, 16, 2], "texture": "#0"}
			}
		},
		{
			"from": [7.7, 24.9, 7.2],
			"to": [8.3, 29.65, 8.8],
			"rotation": {"angle": 0, "axis": "y", "origin": [8, 25, 8]},
			"faces": {
				"north": {"uv": [15, 13, 16, 14], "texture": "#0"},
				"east": {"uv": [15, 13, 16, 14], "texture": "#0"},
				"south": {"uv": [15, 13, 16, 14], "texture": "#0"},
				"west": {"uv": [15, 13, 16, 14], "texture": "#0"},
				"up": {"uv": [15, 13, 16, 14], "texture": "#0"},
				"down": {"uv": [15, 13, 16, 14], "texture": "#0"}
			}
		},
		{
			"from": [7.65, 26.2, 7.15],
			"to": [8.35, 27.95, 8.85],
			"rotation": {"angle": -45, "axis": "y", "origin": [8, 24.5, 8]},
			"faces": {
				"north": {"uv": [14.5, 3.5, 15.5, 5.5], "texture": "#0"},
				"east": {"uv": [15, 4.5, 15, 4.5], "texture": "#0"},
				"south": {"uv": [14.5, 3.5, 15.5, 5.5], "texture": "#0"},
				"west": {"uv": [15, 4.5, 15, 4.5], "texture": "#0"},
				"up": {"uv": [15, 4.5, 15, 4.5], "texture": "#0"},
				"down": {"uv": [15, 4.5, 15, 4.5], "texture": "#0"}
			}
		},
		{
			"from": [7.65, 26.2, 7.15],
			"to": [8.35, 27.95, 8.85],
			"rotation": {"angle": 45, "axis": "y", "origin": [8, 24.5, 8]},
			"faces": {
				"north": {"uv": [14.5, 3.5, 15.5, 5.5], "texture": "#0"},
				"east": {"uv": [15, 4.5, 15, 4.5], "texture": "#0"},
				"south": {"uv": [14.5, 3.5, 15.5, 5.5], "texture": "#0"},
				"west": {"uv": [15, 4.5, 15, 4.5], "texture": "#0"},
				"up": {"uv": [15, 4.5, 15, 4.5], "texture": "#0"},
				"down": {"uv": [15, 4.5, 15, 4.5], "texture": "#0"}
			}
		},
		{
			"from": [8.60378, 29.38255, 7.75],
			"to": [9.10378, 30.88255, 8.25],
			"rotation": {"angle": 0, "axis": "y", "origin": [8.00378, 25.28255, 8]},
			"faces": {
				"north": {"uv": [9.5, 10, 10, 10], "rotation": 270, "texture": "#0"},
				"east": {"uv": [9.5, 10, 10, 10], "rotation": 270, "texture": "#0"},
				"south": {"uv": [9.5, 10, 10, 10], "rotation": 270, "texture": "#0"},
				"west": {"uv": [9.5, 10, 10, 10], "rotation": 270, "texture": "#0"},
				"up": {"uv": [9.5, 10, 10, 10], "rotation": 270, "texture": "#0"},
				"down": {"uv": [9.5, 10, 10, 10], "rotation": 270, "texture": "#0"}
			}
		},
		{
			"from": [9.2344, 28.9471, 7.75],
			"to": [9.7344, 29.9471, 8.25],
			"rotation": {"angle": -22.5, "axis": "z", "origin": [8, 31.25, 8]},
			"faces": {
				"north": {"uv": [9.5, 10, 10, 10], "rotation": 270, "texture": "#0"},
				"east": {"uv": [9.5, 10, 10, 10], "rotation": 270, "texture": "#0"},
				"south": {"uv": [9.5, 10, 10, 10], "rotation": 270, "texture": "#0"},
				"west": {"uv": [9.5, 10, 10, 10], "rotation": 270, "texture": "#0"},
				"up": {"uv": [9.5, 10, 10, 10], "rotation": 270, "texture": "#0"},
				"down": {"uv": [9.5, 10, 10, 10], "rotation": 270, "texture": "#0"}
			}
		},
		{
			"from": [8.40212, 30.48818, 7.75044],
			"to": [8.90212, 30.98818, 8.25044],
			"rotation": {"angle": 22.5, "axis": "z", "origin": [8.01142, 31.19118, 8.00044]},
			"faces": {
				"north": {"uv": [9.5, 10, 10, 10], "rotation": 270, "texture": "#0"},
				"east": {"uv": [9.5, 10, 10, 10], "rotation": 270, "texture": "#0"},
				"south": {"uv": [9.5, 10, 10, 10], "rotation": 270, "texture": "#0"},
				"west": {"uv": [9.5, 10, 10, 10], "rotation": 270, "texture": "#0"},
				"up": {"uv": [9.5, 10, 10, 10], "rotation": 270, "texture": "#0"},
				"down": {"uv": [9.5, 10, 10, 10], "rotation": 270, "texture": "#0"}
			}
		},
		{
			"from": [7.74995, 29.38254, 8.60384],
			"to": [8.24995, 30.88254, 9.10384],
			"rotation": {"angle": 0, "axis": "y", "origin": [7.99995, 25.28254, 8.00384]},
			"faces": {
				"north": {"uv": [9.5, 10, 10, 10], "rotation": 270, "texture": "#0"},
				"east": {"uv": [9.5, 10, 10, 10], "rotation": 270, "texture": "#0"},
				"south": {"uv": [9.5, 10, 10, 10], "rotation": 270, "texture": "#0"},
				"west": {"uv": [9.5, 10, 10, 10], "rotation": 270, "texture": "#0"},
				"up": {"uv": [9.5, 10, 10, 10], "texture": "#0"},
				"down": {"uv": [9.5, 10, 10, 10], "rotation": 180, "texture": "#0"}
			}
		},
		{
			"from": [7.75, 28.9471, 9.2344],
			"to": [8.25, 29.9471, 9.7344],
			"rotation": {"angle": 22.5, "axis": "x", "origin": [8, 31.25, 8]},
			"faces": {
				"north": {"uv": [9.5, 10, 10, 10], "rotation": 270, "texture": "#0"},
				"east": {"uv": [9.5, 10, 10, 10], "rotation": 270, "texture": "#0"},
				"south": {"uv": [9.5, 10, 10, 10], "rotation": 270, "texture": "#0"},
				"west": {"uv": [9.5, 10, 10, 10], "rotation": 270, "texture": "#0"},
				"up": {"uv": [9.5, 10, 10, 10], "texture": "#0"},
				"down": {"uv": [9.5, 10, 10, 10], "rotation": 180, "texture": "#0"}
			}
		},
		{
			"from": [7.74951, 30.48818, 8.40305],
			"to": [8.24951, 30.98818, 8.90305],
			"rotation": {"angle": -22.5, "axis": "x", "origin": [7.99951, 31.19118, 8.01235]},
			"faces": {
				"north": {"uv": [9.5, 10, 10, 10], "rotation": 270, "texture": "#0"},
				"east": {"uv": [9.5, 10, 10, 10], "rotation": 270, "texture": "#0"},
				"south": {"uv": [9.5, 10, 10, 10], "rotation": 270, "texture": "#0"},
				"west": {"uv": [9.5, 10, 10, 10], "rotation": 270, "texture": "#0"},
				"up": {"uv": [9.5, 10, 10, 10], "texture": "#0"},
				"down": {"uv": [9.5, 10, 10, 10], "rotation": 180, "texture": "#0"}
			}
		},
		{
			"from": [6.89616, 29.38254, 7.75006],
			"to": [7.39616, 30.88254, 8.25006],
			"rotation": {"angle": 0, "axis": "y", "origin": [7.99616, 25.28254, 8.00006]},
			"faces": {
				"north": {"uv": [9.5, 10, 10, 10], "rotation": 270, "texture": "#0"},
				"east": {"uv": [9.5, 10, 10, 10], "rotation": 270, "texture": "#0"},
				"south": {"uv": [9.5, 10, 10, 10], "rotation": 270, "texture": "#0"},
				"west": {"uv": [9.5, 10, 10, 10], "rotation": 270, "texture": "#0"},
				"up": {"uv": [9.5, 10, 10, 10], "rotation": 90, "texture": "#0"},
				"down": {"uv": [9.5, 10, 10, 10], "rotation": 90, "texture": "#0"}
			}
		},
		{
			"from": [6.2656, 28.9471, 7.75],
			"to": [6.7656, 29.9471, 8.25],
			"rotation": {"angle": 22.5, "axis": "z", "origin": [8, 31.25, 8]},
			"faces": {
				"north": {"uv": [9.5, 10, 10, 10], "rotation": 270, "texture": "#0"},
				"east": {"uv": [9.5, 10, 10, 10], "rotation": 270, "texture": "#0"},
				"south": {"uv": [9.5, 10, 10, 10], "rotation": 270, "texture": "#0"},
				"west": {"uv": [9.5, 10, 10, 10], "rotation": 270, "texture": "#0"},
				"up": {"uv": [9.5, 10, 10, 10], "rotation": 90, "texture": "#0"},
				"down": {"uv": [9.5, 10, 10, 10], "rotation": 90, "texture": "#0"}
			}
		},
		{
			"from": [7.09732, 30.48815, 7.75016],
			"to": [7.59732, 30.98815, 8.25016],
			"rotation": {"angle": -22.5, "axis": "z", "origin": [7.98802, 31.19115, 8.00016]},
			"faces": {
				"north": {"uv": [9.5, 10, 10, 10], "rotation": 270, "texture": "#0"},
				"east": {"uv": [9.5, 10, 10, 10], "rotation": 270, "texture": "#0"},
				"south": {"uv": [9.5, 10, 10, 10], "rotation": 270, "texture": "#0"},
				"west": {"uv": [9.5, 10, 10, 10], "rotation": 270, "texture": "#0"},
				"up": {"uv": [9.5, 10, 10, 10], "rotation": 90, "texture": "#0"},
				"down": {"uv": [9.5, 10, 10, 10], "rotation": 90, "texture": "#0"}
			}
		},
		{
			"from": [7.74994, 29.38256, 6.89628],
			"to": [8.24994, 30.88256, 7.39628],
			"rotation": {"angle": 0, "axis": "y", "origin": [7.99994, 25.28256, 7.99628]},
			"faces": {
				"north": {"uv": [9.5, 10, 10, 10], "rotation": 270, "texture": "#0"},
				"east": {"uv": [9.5, 10, 10, 10], "rotation": 270, "texture": "#0"},
				"south": {"uv": [9.5, 10, 10, 10], "rotation": 270, "texture": "#0"},
				"west": {"uv": [9.5, 10, 10, 10], "rotation": 270, "texture": "#0"},
				"up": {"uv": [9.5, 10, 10, 10], "rotation": 180, "texture": "#0"},
				"down": {"uv": [9.5, 10, 10, 10], "texture": "#0"}
			}
		},
		{
			"from": [7.75, 28.9471, 6.2656],
			"to": [8.25, 29.9471, 6.7656],
			"rotation": {"angle": -22.5, "axis": "x", "origin": [8, 31.25, 8]},
			"faces": {
				"north": {"uv": [9.5, 10, 10, 10], "rotation": 270, "texture": "#0"},
				"east": {"uv": [9.5, 10, 10, 10], "rotation": 270, "texture": "#0"},
				"south": {"uv": [9.5, 10, 10, 10], "rotation": 270, "texture": "#0"},
				"west": {"uv": [9.5, 10, 10, 10], "rotation": 270, "texture": "#0"},
				"up": {"uv": [9.5, 10, 10, 10], "rotation": 180, "texture": "#0"},
				"down": {"uv": [9.5, 10, 10, 10], "texture": "#0"}
			}
		},
		{
			"from": [7.7, -8.75, 7.2],
			"to": [8.3, 24.9, 8.8],
			"rotation": {"angle": 0, "axis": "y", "origin": [8, 25, 8]},
			"faces": {
				"north": {"uv": [0, 9, 0, 9], "texture": "#0"},
				"east": {"uv": [0, 9, 0, 9], "texture": "#0"},
				"south": {"uv": [0, 9, 0, 9], "texture": "#0"},
				"west": {"uv": [0, 9, 0, 9], "texture": "#0"},
				"up": {"uv": [0, 9, 0, 9], "texture": "#0"},
				"down": {"uv": [0, 9, 0, 9], "texture": "#0"}
			}
		},
		{
			"from": [7.39645, -8.75, 7.67782],
			"to": [8.74645, 24.9, 8.27782],
			"rotation": {"angle": -45, "axis": "y", "origin": [8.02218, 25, 8.05355]},
			"faces": {
				"north": {"uv": [0, 9, 0, 9], "texture": "#0"},
				"east": {"uv": [0, 9, 0, 9], "texture": "#0"},
				"south": {"uv": [0, 9, 0, 9], "texture": "#0"},
				"west": {"uv": [0, 9, 0, 9], "texture": "#0"},
				"up": {"uv": [0, 9, 0, 9], "texture": "#0"},
				"down": {"uv": [0, 9, 0, 9], "texture": "#0"}
			}
		},
		{
			"from": [7.39645, -8.75, 7.72218],
			"to": [8.74645, 24.9, 8.32218],
			"rotation": {"angle": -45, "axis": "y", "origin": [7.94645, 25, 8.02218]},
			"faces": {
				"north": {"uv": [0, 9, 0, 9], "texture": "#0"},
				"east": {"uv": [0, 9, 0, 9], "texture": "#0"},
				"south": {"uv": [0, 9, 0, 9], "texture": "#0"},
				"west": {"uv": [0, 9, 0, 9], "texture": "#0"},
				"up": {"uv": [0, 9, 0, 9], "texture": "#0"},
				"down": {"uv": [0, 9, 0, 9], "texture": "#0"}
			}
		},
		{
			"from": [7.39645, -8.75, 7.67782],
			"to": [8.74645, 24.9, 8.27782],
			"rotation": {"angle": 45, "axis": "y", "origin": [7.94645, 25, 7.97782]},
			"faces": {
				"north": {"uv": [0, 9, 0, 9], "texture": "#0"},
				"east": {"uv": [0, 9, 0, 9], "texture": "#0"},
				"south": {"uv": [0, 9, 0, 9], "texture": "#0"},
				"west": {"uv": [0, 9, 0, 9], "texture": "#0"},
				"up": {"uv": [0, 9, 0, 9], "texture": "#0"},
				"down": {"uv": [0, 9, 0, 9], "texture": "#0"}
			}
		},
		{
			"from": [7.47218, -8.75, 7.75355],
			"to": [8.82218, 24.9, 8.35355],
			"rotation": {"angle": 45, "axis": "y", "origin": [8.02218, 25, 8.05355]},
			"faces": {
				"north": {"uv": [0, 9, 0, 9], "texture": "#0"},
				"east": {"uv": [0, 9, 0, 9], "texture": "#0"},
				"south": {"uv": [0, 9, 0, 9], "texture": "#0"},
				"west": {"uv": [0, 9, 0, 9], "texture": "#0"},
				"up": {"uv": [0, 9, 0, 9], "texture": "#0"},
				"down": {"uv": [0, 9, 0, 9], "texture": "#0"}
			}
		},
		{
			"from": [7.2, -8.75, 7.7],
			"to": [8.8, 24.9, 8.3],
			"rotation": {"angle": 0, "axis": "y", "origin": [8, 25, 8]},
			"faces": {
				"north": {"uv": [0, 9, 0, 9], "texture": "#0"},
				"east": {"uv": [0, 9, 0, 9], "texture": "#0"},
				"south": {"uv": [0, 9, 0, 9], "texture": "#0"},
				"west": {"uv": [0, 9, 0, 9], "texture": "#0"},
				"up": {"uv": [0, 9, 0, 9], "texture": "#0"},
				"down": {"uv": [0, 9, 0, 9], "texture": "#0"}
			}
		},
		{
			"from": [7.75355, -8.75, 7.17782],
			"to": [8.35355, 24.9, 8.52782],
			"rotation": {"angle": 45, "axis": "y", "origin": [8.05355, 25, 7.97782]},
			"faces": {
				"north": {"uv": [0, 9, 0, 9], "texture": "#0"},
				"east": {"uv": [0, 9, 0, 9], "texture": "#0"},
				"south": {"uv": [0, 9, 0, 9], "texture": "#0"},
				"west": {"uv": [0, 9, 0, 9], "texture": "#0"},
				"up": {"uv": [0, 9, 0, 9], "texture": "#0"},
				"down": {"uv": [0, 9, 0, 9], "texture": "#0"}
			}
		},
		{
			"from": [7.70919, -8.75, 7.17782],
			"to": [8.30919, 24.9, 8.52782],
			"rotation": {"angle": 45, "axis": "y", "origin": [8.08492, 25, 8.05355]},
			"faces": {
				"north": {"uv": [0, 9, 0, 9], "texture": "#0"},
				"east": {"uv": [0, 9, 0, 9], "texture": "#0"},
				"south": {"uv": [0, 9, 0, 9], "texture": "#0"},
				"west": {"uv": [0, 9, 0, 9], "texture": "#0"},
				"up": {"uv": [0, 9, 0, 9], "texture": "#0"},
				"down": {"uv": [0, 9, 0, 9], "texture": "#0"}
			}
		},
		{
			"from": [7.17782, -8.75, 7.69081],
			"to": [8.52782, 24.9, 8.29081],
			"rotation": {"angle": 45, "axis": "y", "origin": [8.05355, 25, 7.91508]},
			"faces": {
				"north": {"uv": [0, 9, 0, 9], "texture": "#0"},
				"east": {"uv": [0, 9, 0, 9], "texture": "#0"},
				"south": {"uv": [0, 9, 0, 9], "texture": "#0"},
				"west": {"uv": [0, 9, 0, 9], "texture": "#0"},
				"up": {"uv": [0, 9, 0, 9], "texture": "#0"},
				"down": {"uv": [0, 9, 0, 9], "texture": "#0"}
			}
		},
		{
			"from": [7.22218, -8.75, 7.60208],
			"to": [8.57218, 24.9, 8.20208],
			"rotation": {"angle": 45, "axis": "y", "origin": [8.05355, 25, 7.97782]},
			"faces": {
				"north": {"uv": [0, 9, 0, 9], "texture": "#0"},
				"east": {"uv": [0, 9, 0, 9], "texture": "#0"},
				"south": {"uv": [0, 9, 0, 9], "texture": "#0"},
				"west": {"uv": [0, 9, 0, 9], "texture": "#0"},
				"up": {"uv": [0, 9, 0, 9], "texture": "#0"},
				"down": {"uv": [0, 9, 0, 9], "texture": "#0"}
			}
		},
		{
			"from": [7.17764, -11.25, 7.64662],
			"to": [7.77764, -8.75, 8.24662],
			"rotation": {"angle": 45, "axis": "y", "origin": [7.97764, -11.4, 7.94662]},
			"faces": {
				"north": {"uv": [15, 14, 16, 15], "texture": "#0"},
				"east": {"uv": [15, 14, 16, 15], "texture": "#0"},
				"south": {"uv": [15, 14, 16, 15], "texture": "#0"},
				"west": {"uv": [15, 14, 16, 15], "texture": "#0"},
				"up": {"uv": [15, 14, 16, 15], "texture": "#0"},
				"down": {"uv": [15, 14, 16, 15], "texture": "#0"}
			}
		},
		{
			"from": [7.64627, -11.25, 8.22236],
			"to": [8.24627, -8.75, 8.82236],
			"rotation": {"angle": 45, "axis": "y", "origin": [7.94627, -11.4, 8.02236]},
			"faces": {
				"north": {"uv": [16, 14, 16, 14], "texture": "#0"},
				"east": {"uv": [16, 14, 16, 14], "texture": "#0"},
				"south": {"uv": [16, 14, 16, 14], "texture": "#0"},
				"west": {"uv": [16, 14, 16, 14], "texture": "#0"},
				"up": {"uv": [16, 14, 16, 14], "texture": "#0"},
				"down": {"uv": [16, 14, 16, 14], "texture": "#0"}
			}
		},
		{
			"from": [7.6909, -11.25, 8.22247],
			"to": [8.2909, -8.75, 8.82247],
			"rotation": {"angle": 45, "axis": "y", "origin": [7.9149, -11.4, 7.947]},
			"faces": {
				"north": {"uv": [15, 14, 16, 15], "texture": "#0"},
				"east": {"uv": [15, 14, 16, 15], "texture": "#0"},
				"south": {"uv": [15, 14, 16, 15], "texture": "#0"},
				"west": {"uv": [15, 14, 16, 15], "texture": "#0"},
				"up": {"uv": [15, 14, 16, 15], "texture": "#0"},
				"down": {"uv": [15, 14, 16, 15], "texture": "#0"}
			}
		},
		{
			"from": [7.19983, -11.25, 7.70017],
			"to": [8.79983, -8.75, 8.30017],
			"rotation": {"angle": 0, "axis": "y", "origin": [7.99983, -11.4, 8.00017]},
			"faces": {
				"north": {"uv": [15, 14, 16, 15], "texture": "#0"},
				"east": {"uv": [15, 14, 16, 15], "texture": "#0"},
				"south": {"uv": [15, 14, 16, 15], "texture": "#0"},
				"west": {"uv": [15, 14, 16, 15], "texture": "#0"},
				"up": {"uv": [15, 14, 16, 15], "texture": "#0"},
				"down": {"uv": [15, 14, 16, 15], "texture": "#0"}
			}
		},
		{
			"from": [7.98199, -12.346, 7.70082],
			"to": [8.58199, -11.096, 8.30082],
			"rotation": {"angle": -22.5, "axis": "z", "origin": [8.30271, -11.72009, 7.97919]},
			"faces": {
				"north": {"uv": [15, 14, 16, 15], "texture": "#0"},
				"east": {"uv": [15, 14, 16, 15], "texture": "#0"},
				"south": {"uv": [15, 14, 16, 15], "texture": "#0"},
				"west": {"uv": [15, 14, 16, 15], "texture": "#0"},
				"up": {"uv": [15, 14, 16, 15], "texture": "#0"},
				"down": {"uv": [15, 14, 16, 15], "texture": "#0"}
			}
		},
		{
			"from": [7.98199, -12.346, 7.70082],
			"to": [8.58199, -11.096, 8.30082],
			"rotation": {"angle": -22.5, "axis": "z", "origin": [8.30271, -11.72009, 7.97919]},
			"faces": {
				"north": {"uv": [16, 14, 16, 14], "texture": "#0"},
				"east": {"uv": [16, 14, 16, 14], "texture": "#0"},
				"south": {"uv": [16, 14, 16, 14], "texture": "#0"},
				"west": {"uv": [16, 14, 16, 14], "texture": "#0"},
				"up": {"uv": [16, 14, 16, 14], "texture": "#0"},
				"down": {"uv": [16, 14, 16, 14], "texture": "#0"}
			}
		},
		{
			"from": [7.41801, -12.346, 7.70082],
			"to": [8.01801, -11.096, 8.30082],
			"rotation": {"angle": 22.5, "axis": "z", "origin": [7.69729, -11.72009, 7.97919]},
			"faces": {
				"north": {"uv": [15, 14, 16, 15], "texture": "#0"},
				"east": {"uv": [15, 14, 16, 15], "texture": "#0"},
				"south": {"uv": [15, 14, 16, 15], "texture": "#0"},
				"west": {"uv": [15, 14, 16, 15], "texture": "#0"},
				"up": {"uv": [15, 14, 16, 15], "texture": "#0"},
				"down": {"uv": [15, 14, 16, 15], "texture": "#0"}
			}
		},
		{
			"from": [8.26614, -11.25, 7.66477],
			"to": [8.86614, -8.75, 8.26477],
			"rotation": {"angle": 45, "axis": "y", "origin": [8.02217, -11.40008, 8.11607]},
			"faces": {
				"north": {"uv": [16, 14, 16, 14], "texture": "#0"},
				"east": {"uv": [15, 14, 16, 15], "texture": "#0"},
				"south": {"uv": [16, 14, 16, 14], "texture": "#0"},
				"west": {"uv": [16, 14, 16, 14], "texture": "#0"},
				"up": {"uv": [16, 14, 16, 14], "texture": "#0"},
				"down": {"uv": [16, 14, 16, 14], "texture": "#0"}
			}
		},
		{
			"from": [8.22201, -11.25, 7.75373],
			"to": [8.82201, -8.75, 8.35373],
			"rotation": {"angle": 45, "axis": "y", "origin": [8.02201, -11.4, 8.05373]},
			"faces": {
				"north": {"uv": [16, 14, 16, 14], "texture": "#0"},
				"east": {"uv": [16, 14, 16, 14], "texture": "#0"},
				"south": {"uv": [16, 14, 16, 14], "texture": "#0"},
				"west": {"uv": [16, 14, 16, 14], "texture": "#0"},
				"up": {"uv": [16, 14, 16, 14], "texture": "#0"},
				"down": {"uv": [16, 14, 16, 14], "texture": "#0"}
			}
		},
		{
			"from": [7.69983, -11.25, 7.20017],
			"to": [8.29983, -8.75, 8.80017],
			"rotation": {"angle": 0, "axis": "y", "origin": [7.99983, -11.4, 8.00017]},
			"faces": {
				"north": {"uv": [15, 14, 16, 15], "texture": "#0"},
				"east": {"uv": [15, 14, 16, 15], "texture": "#0"},
				"south": {"uv": [15, 14, 16, 15], "texture": "#0"},
				"west": {"uv": [15, 14, 16, 15], "texture": "#0"},
				"up": {"uv": [15, 14, 16, 15], "texture": "#0"},
				"down": {"uv": [15, 14, 16, 15], "texture": "#0"}
			}
		},
		{
			"from": [7.69925, -12.33892, 8.03319],
			"to": [8.29925, -11.08892, 8.63319],
			"rotation": {"angle": 22.5, "axis": "x", "origin": [8.02063, -11.58976, 8.31265]},
			"faces": {
				"north": {"uv": [15, 14, 16, 15], "texture": "#0"},
				"east": {"uv": [15, 14, 16, 15], "texture": "#0"},
				"south": {"uv": [15, 14, 16, 15], "texture": "#0"},
				"west": {"uv": [15, 14, 16, 15], "texture": "#0"},
				"up": {"uv": [15, 14, 16, 15], "texture": "#0"},
				"down": {"uv": [15, 14, 16, 15], "texture": "#0"}
			}
		},
		{
			"from": [7.69925, -12.33892, 7.36681],
			"to": [8.29925, -11.08892, 7.96681],
			"rotation": {"angle": -22.5, "axis": "x", "origin": [8.02063, -11.58976, 7.68735]},
			"faces": {
				"north": {"uv": [15, 14, 16, 15], "texture": "#0"},
				"east": {"uv": [15, 14, 16, 15], "texture": "#0"},
				"south": {"uv": [15, 14, 16, 15], "texture": "#0"},
				"west": {"uv": [15, 14, 16, 15], "texture": "#0"},
				"up": {"uv": [15, 14, 16, 15], "texture": "#0"},
				"down": {"uv": [15, 14, 16, 15], "texture": "#0"}
			}
		},
		{
			"from": [7.69991, -12.4051, 7.67778],
			"to": [8.29991, -11.1551, 8.27778],
			"rotation": {"angle": 0, "axis": "y", "origin": [8.02129, -11.65594, 7.99833]},
			"faces": {
				"north": {"uv": [16, 14, 16, 14], "texture": "#0"},
				"east": {"uv": [16, 14, 16, 14], "texture": "#0"},
				"south": {"uv": [16, 14, 16, 14], "texture": "#0"},
				"west": {"uv": [16, 14, 16, 14], "texture": "#0"},
				"up": {"uv": [16, 14, 16, 14], "texture": "#0"},
				"down": {"uv": [16, 14, 16, 14], "texture": "#0"}
			}
		},
		{
			"from": [7.72124, -12.40523, 7.70079],
			"to": [8.32124, -11.15523, 8.30079],
			"rotation": {"angle": 0, "axis": "y", "origin": [8.04262, -11.65607, 8.02133]},
			"faces": {
				"north": {"uv": [16, 14, 16, 14], "texture": "#0"},
				"east": {"uv": [16, 14, 16, 14], "texture": "#0"},
				"south": {"uv": [16, 14, 16, 14], "texture": "#0"},
				"west": {"uv": [16, 14, 16, 14], "texture": "#0"},
				"up": {"uv": [16, 14, 16, 14], "texture": "#0"},
				"down": {"uv": [16, 14, 16, 14], "texture": "#0"}
			}
		},
		{
			"from": [7.6788, -12.4053, 7.7009],
			"to": [8.2788, -11.1553, 8.3009],
			"rotation": {"angle": 0, "axis": "y", "origin": [8.00018, -11.65614, 8.02144]},
			"faces": {
				"north": {"uv": [16, 14, 16, 14], "texture": "#0"},
				"east": {"uv": [16, 14, 16, 14], "texture": "#0"},
				"south": {"uv": [16, 14, 16, 14], "texture": "#0"},
				"west": {"uv": [16, 14, 16, 14], "texture": "#0"},
				"up": {"uv": [16, 14, 16, 14], "texture": "#0"},
				"down": {"uv": [16, 14, 16, 14], "texture": "#0"}
			}
		},
		{
			"from": [7.69929, -12.40463, 7.72214],
			"to": [8.29929, -11.15463, 8.32214],
			"rotation": {"angle": 0, "axis": "y", "origin": [8.02067, -11.65547, 8.04269]},
			"faces": {
				"north": {"uv": [16, 14, 16, 14], "texture": "#0"},
				"east": {"uv": [16, 14, 16, 14], "texture": "#0"},
				"south": {"uv": [16, 14, 16, 14], "texture": "#0"},
				"west": {"uv": [16, 14, 16, 14], "texture": "#0"},
				"up": {"uv": [16, 14, 16, 14], "texture": "#0"},
				"down": {"uv": [16, 14, 16, 14], "texture": "#0"}
			}
		},
		{
			"from": [7.79738, -11.25, 7.15954],
			"to": [8.39738, -8.75, 7.75954],
			"rotation": {"angle": 45, "axis": "y", "origin": [8.09766, -11.40019, 8.02188]},
			"faces": {
				"north": {"uv": [16, 14, 16, 14], "texture": "#0"},
				"east": {"uv": [16, 14, 16, 14], "texture": "#0"},
				"south": {"uv": [16, 14, 16, 14], "texture": "#0"},
				"west": {"uv": [16, 14, 16, 14], "texture": "#0"},
				"up": {"uv": [16, 14, 16, 14], "rotation": 270, "texture": "#0"},
				"down": {"uv": [16, 14, 16, 14], "rotation": 90, "texture": "#0"}
			}
		},
		{
			"from": [7.66442, -11.25, 7.13386],
			"to": [8.26442, -8.75, 7.73386],
			"rotation": {"angle": 45, "axis": "y", "origin": [8.11573, -11.40008, 7.97783]},
			"faces": {
				"north": {"uv": [15, 14, 16, 15], "texture": "#0"},
				"east": {"uv": [15, 14, 16, 15], "texture": "#0"},
				"south": {"uv": [15, 14, 16, 15], "texture": "#0"},
				"west": {"uv": [15, 14, 16, 15], "texture": "#0"},
				"up": {"uv": [15, 14, 16, 15], "texture": "#0"},
				"down": {"uv": [15, 14, 16, 15], "texture": "#0"}
			}
		},
		{
			"from": [7.25338, -11.25, 7.72236],
			"to": [7.85338, -8.75, 8.32236],
			"rotation": {"angle": 45, "axis": "y", "origin": [8.05338, -11.4, 8.02236]},
			"faces": {
				"north": {"uv": [16, 14, 16, 14], "texture": "#0"},
				"east": {"uv": [16, 14, 16, 14], "texture": "#0"},
				"south": {"uv": [16, 14, 16, 14], "texture": "#0"},
				"west": {"uv": [16, 14, 16, 14], "texture": "#0"},
				"up": {"uv": [16, 14, 16, 14], "texture": "#0"},
				"down": {"uv": [16, 14, 16, 14], "texture": "#0"}
			}
		}
	],
	"display": {
		"thirdperson_righthand": {
			"rotation": [0, 50, 0],
			"translation": [0.01, -6.2272, 0.6956],
			"scale": [0.6, 0.6, 0.6]
		},
		"thirdperson_lefthand": {
			"rotation": [0, 50, 0],
			"translation": [0.01, -6.2272, 0.6956],
			"scale": [0.6, 0.6, 0.6]
		},
		"firstperson_righthand": {
			"rotation": [0, 25, 0],
			"translation": [0, -10.5, 0]
		},
		"firstperson_lefthand": {
			"rotation": [0, 25, 0],
			"translation": [0, -10.5, 0]
		},
		"ground": {
			"rotation": [50, 0, 90],
			"translation": [2.5, -0.75, 0],
			"scale": [0.55, 0.55, 0.55]
		},
		"gui": {
			"rotation": [0, 45, 51],
			"translation": [0.329, -0.0381, 0],
			"scale": [0.5, 0.5, 0.5]
		},
		"head": {
			"rotation": [0, 0, -90],
			"translation": [-4.125, -4.684, -6.898]
		},
		"fixed": {
			"rotation": [0, 50, 0],
			"translation": [0, -1.0789, -0.25],
			"scale": [0.4, 0.4, 0.4]
		}
	},
	"groups": [
		{
			"name": "exteneder",
			"origin": [8, 8.25, 8],
			"children": [0, 1, 2, 3, 4, 5, 6, 7, 8, 9, 10, 11, 12, 13, 14, 15, 16, 17, 18, 19, 20, 21, 22, 23, 24, 25, 26, 27, 28, 29, 30, 31]
		},
		{
			"name": "body",
			"origin": [8.05355, 25, 7.97782],
			"children": [32, 33, 34, 35, 36, 37, 38, 39, 40, 41]
		},
		{
			"name": "base",
			"origin": [8.05369, -7, 8.02205],
			"children": [42, 43, 44, 45, 46, 47, 48, 49, 50, 51, 52, 53, 54, 55, 56, 57, 58, 59, 60]
		}
	]
}