{
	"credit": "Made with Blockbench",
	"textures": {
		"0": "tardis:item/fluid_link",
		"particle": "tardis:item/fluid_link"
	},
	"elements": [
		{
			"from": [6.25, 0.6, 6.25],
			"to": [9.75, 7.1, 9.75],
			"faces": {
				"north": {"uv": [0, 0, 1, 1], "texture": "#0"},
				"east": {"uv": [0, 0, 1, 1], "texture": "#0"},
				"south": {"uv": [0, 0, 1, 1], "texture": "#0"},
				"west": {"uv": [0, 0, 1, 1], "texture": "#0"},
				"up": {"uv": [0, 0, 1, 1], "texture": "#0"},
				"down": {"uv": [0, 0, 1, 1], "texture": "#0"}
			}
		},
		{
			"from": [5.75, 1.5, 5.75],
			"to": [10.25, 2.5, 10.25],
			"faces": {
				"north": {"uv": [0.125, 13.844, 4.344, 15.344], "texture": "#0"},
				"east": {"uv": [0.125, 13.844, 4.344, 15.344], "texture": "#0"},
				"south": {"uv": [0.125, 13.844, 4.344, 15.344], "texture": "#0"},
				"west": {"uv": [0.125, 13.844, 4.344, 15.344], "texture": "#0"},
				"up": {"uv": [0.125, 13.844, 4.344, 15.344], "texture": "#0"},
				"down": {"uv": [0.125, 13.844, 4.344, 15.344], "texture": "#0"}
			}
		},
		{
			"from": [5.75, 2.75, 5.75],
			"to": [10.25, 3.75, 10.25],
			"faces": {
				"north": {"uv": [0.125, 13.844, 4.344, 15.344], "texture": "#0"},
				"east": {"uv": [0.125, 13.844, 4.344, 15.344], "texture": "#0"},
				"south": {"uv": [0.125, 13.844, 4.344, 15.344], "texture": "#0"},
				"west": {"uv": [0.125, 13.844, 4.344, 15.344], "texture": "#0"},
				"up": {"uv": [0.125, 13.844, 4.344, 15.344], "texture": "#0"},
				"down": {"uv": [0.125, 13.844, 4.344, 15.344], "texture": "#0"}
			}
		},
		{
			"from": [5.75, 4, 5.75],
			"to": [10.25, 5, 10.25],
			"faces": {
				"north": {"uv": [0.125, 13.844, 4.344, 15.344], "texture": "#0"},
				"east": {"uv": [0.125, 13.844, 4.344, 15.344], "texture": "#0"},
				"south": {"uv": [0.125, 13.844, 4.344, 15.344], "texture": "#0"},
				"west": {"uv": [0.125, 13.844, 4.344, 15.344], "texture": "#0"},
				"up": {"uv": [0.125, 13.844, 4.344, 15.344], "texture": "#0"},
				"down": {"uv": [0.125, 13.844, 4.344, 15.344], "texture": "#0"}
			}
		},
		{
			"from": [6, 2.25, 6],
			"to": [10, 2.75, 10],
			"faces": {
				"north": {"uv": [7.594, 14.282, 10.344, 15.375], "texture": "#0"},
				"east": {"uv": [7.594, 14.282, 10.344, 15.375], "texture": "#0"},
				"south": {"uv": [7.594, 14.282, 10.344, 15.375], "texture": "#0"},
				"west": {"uv": [7.594, 14.282, 10.344, 15.375], "texture": "#0"},
				"up": {"uv": [7.594, 14.282, 10.344, 15.375], "texture": "#0"},
				"down": {"uv": [7.594, 14.282, 10.344, 15.375], "texture": "#0"}
			}
		},
		{
			"from": [6, 3.5, 6],
			"to": [10, 4, 10],
			"faces": {
				"north": {"uv": [7.594, 14.282, 10.344, 15.375], "texture": "#0"},
				"east": {"uv": [7.594, 14.282, 10.344, 15.375], "texture": "#0"},
				"south": {"uv": [7.594, 14.282, 10.344, 15.375], "texture": "#0"},
				"west": {"uv": [7.594, 14.282, 10.344, 15.375], "texture": "#0"},
				"up": {"uv": [7.594, 14.282, 10.344, 15.375], "texture": "#0"},
				"down": {"uv": [7.594, 14.282, 10.344, 15.375], "texture": "#0"}
			}
		},
		{
			"from": [6, 5, 6],
			"to": [10, 5.5, 10],
			"faces": {
				"north": {"uv": [7.594, 14.282, 10.344, 15.375], "texture": "#0"},
				"east": {"uv": [7.594, 14.282, 10.344, 15.375], "texture": "#0"},
				"south": {"uv": [7.594, 14.282, 10.344, 15.375], "texture": "#0"},
				"west": {"uv": [7.594, 14.282, 10.344, 15.375], "texture": "#0"},
				"up": {"uv": [7.594, 14.282, 10.344, 15.375], "texture": "#0"},
				"down": {"uv": [7.594, 14.282, 10.344, 15.375], "texture": "#0"}
			}
		},
		{
			"from": [5.75, 5.25, 5.75],
			"to": [10.25, 6.25, 10.25],
			"faces": {
				"north": {"uv": [0.125, 13.844, 4.344, 15.344], "texture": "#0"},
				"east": {"uv": [0.125, 13.844, 4.344, 15.344], "texture": "#0"},
				"south": {"uv": [0.125, 13.844, 4.344, 15.344], "texture": "#0"},
				"west": {"uv": [0.125, 13.844, 4.344, 15.344], "texture": "#0"},
				"up": {"uv": [0.125, 13.844, 4.344, 15.344], "texture": "#0"},
				"down": {"uv": [0.125, 13.844, 4.344, 15.344], "texture": "#0"}
			}
		},
		{
			"from": [6, 6, 6],
			"to": [10, 6.5, 10],
			"faces": {
				"north": {"uv": [7.594, 14.282, 10.344, 15.375], "texture": "#0"},
				"east": {"uv": [7.594, 14.282, 10.344, 15.375], "texture": "#0"},
				"south": {"uv": [7.594, 14.282, 10.344, 15.375], "texture": "#0"},
				"west": {"uv": [7.594, 14.282, 10.344, 15.375], "texture": "#0"},
				"up": {"uv": [7.594, 14.282, 10.344, 15.375], "texture": "#0"},
				"down": {"uv": [7.594, 14.282, 10.344, 15.375], "texture": "#0"}
			}
		},
		{
			"from": [6, 1.25, 6],
			"to": [10, 1.75, 10],
			"faces": {
				"north": {"uv": [7.594, 14.282, 10.344, 15.375], "texture": "#0"},
				"east": {"uv": [7.594, 14.282, 10.344, 15.375], "texture": "#0"},
				"south": {"uv": [7.594, 14.282, 10.344, 15.375], "texture": "#0"},
				"west": {"uv": [7.594, 14.282, 10.344, 15.375], "texture": "#0"},
				"up": {"uv": [7.594, 14.282, 10.344, 15.375], "texture": "#0"},
				"down": {"uv": [7.594, 14.282, 10.344, 15.375], "texture": "#0"}
			}
		},
		{
			"from": [6.75, 7.1, 6.75],
			"to": [9.25, 7.3, 9.25],
			"faces": {
				"north": {"uv": [0.625, 7.625, 3.125, 9.5], "texture": "#0"},
				"east": {"uv": [0.625, 7.625, 3.125, 9.5], "texture": "#0"},
				"south": {"uv": [0.625, 7.625, 3.125, 9.5], "texture": "#0"},
				"west": {"uv": [0.625, 7.625, 3.125, 9.5], "texture": "#0"},
				"up": {"uv": [0.625, 7.625, 3.125, 9.5], "texture": "#0"},
				"down": {"uv": [0.625, 7.625, 3.125, 9.5], "texture": "#0"}
			}
		},
		{
			"from": [6.75, 0.4, 6.75],
			"to": [9.25, 0.6, 9.25],
			"faces": {
				"north": {"uv": [0.625, 7.625, 3.125, 9.5], "texture": "#0"},
				"east": {"uv": [0.625, 7.625, 3.125, 9.5], "texture": "#0"},
				"south": {"uv": [0.625, 7.625, 3.125, 9.5], "texture": "#0"},
				"west": {"uv": [0.625, 7.625, 3.125, 9.5], "texture": "#0"},
				"up": {"uv": [0.625, 7.625, 3.125, 9.5], "texture": "#0"},
				"down": {"uv": [0.625, 7.625, 3.125, 9.5], "texture": "#0"}
			}
		}
	],
	"display": {
		"thirdperson_righthand": {
			"translation": [0, 1.5, 0.75],
			"scale": [0.3, 0.3, 0.3]
		},
		"thirdperson_lefthand": {
			"translation": [0, 1.5, 0.75],
			"scale": [0.3, 0.3, 0.3]
		},
		"firstperson_righthand": {
			"rotation": [-18, 12, 0],
			"translation": [0, 5.75, 0]
		},
		"firstperson_lefthand": {
			"rotation": [-18, 12, 0],
			"translation": [0, 5.75, 0]
		},
		"ground": {
			"translation": [0, 3, 0],
			"scale": [0.75, 0.75, 0.75]
		},
		"gui": {
			"rotation": [20, 45, 0],
			"translation": [-0.5, 4.5, 0],
			"scale": [1.25, 1.25, 1.25]
		},
		"head": {
			"translation": [0, 9.5, 0],
			"scale": [4, 2, 4]
		},
		"fixed": {
			"translation": [0, 4.25, 0]
		}
	}
}