{
	"type": "tardis:quantiscope",
	"repair": false,
	"ingredients":[
		{"item":"minecraft:diamond"},
		{"item":"minecraft:gold_ingot"},
		{"item":"minecraft:comparator"},
		{"item":"tardis:circuits"},
		{"item":"tardis:circuits"}
	],
	"result":{
		"item":"tardis:subsystem/shield_generator"
	}
}