{
  "type":"normal",
  "text":"Shield Generator. This circuit powers the forcefield that prevents you from being sucked out into space, prevents fluids from entering the interior and protects other subsystems from explosion and projectile damage."
}