{
	"type":"minecraft:crafting_shaped",
	"pattern":[
		"oco",
		"cxc",
		"oco"
	],
	"key":{
		"c":{
			"item":"tardis:circuits"
		},
		"x":{
			"item":"tardis:xion_crystal"
		},
		"o":{
			"item":"minecraft:obsidian"
		}
	},
	"result":{
		"item":"tardis:oxygen_sealer"
	}
}