{
  "type": "minecraft:crafting_shaped",
  "pattern": [
    "bq ",
    "   ",
    "   "
  ],
  "key": {
    "b": 
    {
  		"item": "tardis:quantiscope_brass"
  	},
  	"q":
  	{
  		"item": "minecraft:quartz"
  	}
  },
  "result": {
    "item": "tardis:quantiscope_iron"
  }
}