{
	"credit": "Made with Blockbench",
	"texture_size": [32, 32],
	"textures": {
		"28": "tardis:item/sonics/mk4_activator"
	},
	"elements": [
		{
			"name": "octagon",
			"from": [7.76461, 2.34951, 3.28456],
			"to": [8.26664, 2.67799, 4.36456],
			"rotation": {"angle": 0, "axis": "y", "origin": [8, 9.29798, 6.67734]},
			"faces": {
				"north": {"uv": [13, 1, 14, 2], "texture": "#28"},
				"east": {"uv": [13, 2, 14, 3], "texture": "#28"},
				"south": {"uv": [13, 3, 14, 4], "texture": "#28"},
				"west": {"uv": [13, 5, 14, 6], "texture": "#28"},
				"up": {"uv": [14, 7, 13, 6], "texture": "#28"},
				"down": {"uv": [14, 7, 13, 8], "texture": "#28"}
			}
		},
		{
			"name": "octagon",
			"from": [1.54728, 3.00092, 2.79756],
			"to": [2.40774, 5.07827, 3.56619],
			"rotation": {"angle": 45, "axis": "z", "origin": [8, 10.06209, 7.66536]},
			"faces": {
				"north": {"uv": [4, 2, 5, 4], "texture": "#28"},
				"east": {"uv": [5, 2, 6, 4], "texture": "#28"},
				"south": {"uv": [0, 6, 1, 8], "texture": "#28"},
				"west": {"uv": [1, 6, 2, 8], "texture": "#28"},
				"up": {"uv": [14, 9, 13, 8], "texture": "#28"},
				"down": {"uv": [14, 9, 13, 10], "texture": "#28"}
			}
		},
		{
			"name": "octagon",
			"from": [7.56977, 0.50632, 2.79756],
			"to": [8.43023, 2.58368, 3.56619],
			"rotation": {"angle": 0, "axis": "y", "origin": [8, 10.06209, 7.66536]},
			"faces": {
				"north": {"uv": [2, 6, 3, 8], "texture": "#28"},
				"east": {"uv": [3, 6, 4, 8], "texture": "#28"},
				"south": {"uv": [4, 6, 5, 8], "texture": "#28"},
				"west": {"uv": [5, 6, 6, 8], "texture": "#28"},
				"up": {"uv": [14, 11, 13, 10], "texture": "#28"},
				"down": {"uv": [14, 12, 13, 13], "texture": "#28"}
			}
		},
		{
			"name": "octagon",
			"from": [0.93883, 3.60936, 2.79756],
			"to": [3.01619, 4.46983, 3.56619],
			"rotation": {"angle": 45, "axis": "z", "origin": [8, 10.06209, 7.66536]},
			"faces": {
				"north": {"uv": [6, 6, 8, 7], "texture": "#28"},
				"east": {"uv": [4, 14, 5, 15], "texture": "#28"},
				"south": {"uv": [6, 0, 8, 1], "texture": "#28"},
				"west": {"uv": [5, 14, 6, 15], "texture": "#28"},
				"up": {"uv": [8, 2, 6, 1], "texture": "#28"},
				"down": {"uv": [8, 2, 6, 3], "texture": "#28"}
			}
		},
		{
			"name": "octagon",
			"from": [6.96132, 1.11477, 2.79756],
			"to": [9.03868, 1.97523, 3.56619],
			"rotation": {"angle": 0, "axis": "y", "origin": [8, 10.06209, 7.66536]},
			"faces": {
				"north": {"uv": [6, 3, 8, 4], "texture": "#28"},
				"east": {"uv": [6, 14, 7, 15], "texture": "#28"},
				"south": {"uv": [6, 4, 8, 5], "texture": "#28"},
				"west": {"uv": [7, 14, 8, 15], "texture": "#28"},
				"up": {"uv": [8, 6, 6, 5], "texture": "#28"},
				"down": {"uv": [8, 7, 6, 8], "texture": "#28"}
			}
		},
		{
			"name": "octagon",
			"from": [2.77329, 2.7243, 1.04558],
			"to": [3.47027, 4.40695, 2.91192],
			"rotation": {"angle": 45, "axis": "z", "origin": [8, 8.44384, 6.64006]},
			"faces": {
				"north": {"uv": [0, 8, 1, 10], "texture": "#28"},
				"east": {"uv": [0, 0, 2, 2], "texture": "#28"},
				"south": {"uv": [1, 8, 2, 10], "texture": "#28"},
				"west": {"uv": [0, 2, 2, 4], "texture": "#28"},
				"up": {"uv": [3, 10, 2, 8], "texture": "#28"},
				"down": {"uv": [4, 8, 3, 10], "texture": "#28"}
			}
		},
		{
			"name": "octagon",
			"from": [7.65151, 0.70367, 1.04558],
			"to": [8.34849, 2.38633, 2.91192],
			"rotation": {"angle": 0, "axis": "y", "origin": [8, 8.44384, 6.64006]},
			"faces": {
				"north": {"uv": [4, 8, 5, 10], "texture": "#28"},
				"east": {"uv": [2, 2, 4, 4], "texture": "#28"},
				"south": {"uv": [5, 8, 6, 10], "texture": "#28"},
				"west": {"uv": [2, 0, 4, 2], "texture": "#28"},
				"up": {"uv": [7, 10, 6, 8], "texture": "#28"},
				"down": {"uv": [8, 8, 7, 10], "texture": "#28"}
			}
		},
		{
			"name": "octagon",
			"from": [2.28046, 3.21713, 1.04558],
			"to": [3.96311, 3.91411, 2.91192],
			"rotation": {"angle": 45, "axis": "z", "origin": [8, 8.44384, 6.64006]},
			"faces": {
				"north": {"uv": [8, 8, 10, 9], "texture": "#28"},
				"east": {"uv": [8, 0, 10, 1], "texture": "#28"},
				"south": {"uv": [8, 1, 10, 2], "texture": "#28"},
				"west": {"uv": [8, 2, 10, 3], "texture": "#28"},
				"up": {"uv": [2, 6, 0, 4], "texture": "#28"},
				"down": {"uv": [4, 4, 2, 6], "texture": "#28"}
			}
		},
		{
			"name": "octagon",
			"from": [7.15867, 1.19651, 1.04558],
			"to": [8.84133, 1.89349, 2.91192],
			"rotation": {"angle": 0, "axis": "y", "origin": [8, 8.44384, 6.64006]},
			"faces": {
				"north": {"uv": [8, 3, 10, 4], "texture": "#28"},
				"east": {"uv": [8, 4, 10, 5], "texture": "#28"},
				"south": {"uv": [8, 5, 10, 6], "texture": "#28"},
				"west": {"uv": [8, 6, 10, 7], "texture": "#28"},
				"up": {"uv": [6, 6, 4, 4], "texture": "#28"},
				"down": {"uv": [6, 0, 4, 2], "texture": "#28"}
			}
		},
		{
			"name": "octagon",
			"from": [2.12618, 2.8703, 3.53456],
			"to": [2.90945, 4.76129, 4.73956],
			"rotation": {"angle": 45, "axis": "z", "origin": [8, 9.29798, 6.67734]},
			"faces": {
				"north": {"uv": [8, 9, 9, 11], "texture": "#28"},
				"east": {"uv": [9, 9, 10, 11], "texture": "#28"},
				"south": {"uv": [0, 10, 1, 12], "texture": "#28"},
				"west": {"uv": [1, 10, 2, 12], "texture": "#28"},
				"up": {"uv": [9, 15, 8, 14], "texture": "#28"},
				"down": {"uv": [10, 14, 9, 15], "texture": "#28"}
			}
		},
		{
			"name": "octagon",
			"from": [7.60836, 0.59951, 3.53456],
			"to": [8.39164, 2.49049, 4.73956],
			"rotation": {"angle": 0, "axis": "y", "origin": [8, 9.29798, 6.67734]},
			"faces": {
				"north": {"uv": [2, 10, 3, 12], "texture": "#28"},
				"east": {"uv": [3, 10, 4, 12], "texture": "#28"},
				"south": {"uv": [4, 10, 5, 12], "texture": "#28"},
				"west": {"uv": [5, 10, 6, 12], "texture": "#28"},
				"up": {"uv": [11, 15, 10, 14], "texture": "#28"},
				"down": {"uv": [12, 14, 11, 15], "texture": "#28"}
			}
		},
		{
			"name": "octagon",
			"from": [1.57232, 3.42416, 3.53456],
			"to": [3.46331, 4.20743, 4.73956],
			"rotation": {"angle": 45, "axis": "z", "origin": [8, 9.29798, 6.67734]},
			"faces": {
				"north": {"uv": [8, 7, 10, 8], "texture": "#28"},
				"east": {"uv": [12, 14, 13, 15], "texture": "#28"},
				"south": {"uv": [6, 10, 8, 11], "texture": "#28"},
				"west": {"uv": [13, 14, 14, 15], "texture": "#28"},
				"up": {"uv": [12, 11, 10, 10], "texture": "#28"},
				"down": {"uv": [12, 0, 10, 1], "texture": "#28"}
			}
		},
		{
			"name": "octagon",
			"from": [7.05451, 1.15336, 3.53456],
			"to": [8.94549, 1.93664, 4.73956],
			"rotation": {"angle": 0, "axis": "y", "origin": [8, 9.29798, 6.67734]},
			"faces": {
				"north": {"uv": [10, 1, 12, 2], "texture": "#28"},
				"east": {"uv": [14, 14, 15, 15], "texture": "#28"},
				"south": {"uv": [10, 2, 12, 3], "texture": "#28"},
				"west": {"uv": [14, 1, 15, 2], "texture": "#28"},
				"up": {"uv": [12, 4, 10, 3], "texture": "#28"},
				"down": {"uv": [12, 4, 10, 5], "texture": "#28"}
			}
		},
		{
			"name": "octagon",
			"from": [2.62428, 2.75792, 4.66785],
			"to": [3.34113, 4.48855, 5.98127],
			"rotation": {"angle": 45, "axis": "z", "origin": [8, 8.64053, 6.39102]},
			"faces": {
				"north": {"uv": [10, 5, 11, 7], "texture": "#28"},
				"east": {"uv": [10, 7, 11, 9], "texture": "#28"},
				"south": {"uv": [6, 11, 7, 13], "texture": "#28"},
				"west": {"uv": [7, 11, 8, 13], "texture": "#28"},
				"up": {"uv": [15, 3, 14, 2], "texture": "#28"},
				"down": {"uv": [15, 3, 14, 4], "texture": "#28"}
			}
		},
		{
			"name": "octagon",
			"from": [7.64158, 0.67969, 4.66785],
			"to": [8.35842, 2.41031, 5.98127],
			"rotation": {"angle": 0, "axis": "y", "origin": [8, 8.64053, 6.39102]},
			"faces": {
				"north": {"uv": [8, 11, 9, 13], "texture": "#28"},
				"east": {"uv": [9, 11, 10, 13], "texture": "#28"},
				"south": {"uv": [10, 11, 11, 13], "texture": "#28"},
				"west": {"uv": [11, 11, 12, 13], "texture": "#28"},
				"up": {"uv": [15, 5, 14, 4], "texture": "#28"},
				"down": {"uv": [15, 5, 14, 6], "texture": "#28"}
			}
		},
		{
			"name": "octagon",
			"from": [2.11739, 3.26481, 4.66785],
			"to": [3.84802, 3.98166, 5.98127],
			"rotation": {"angle": 45, "axis": "z", "origin": [8, 8.64053, 6.39102]},
			"faces": {
				"north": {"uv": [10, 9, 12, 10], "texture": "#28"},
				"east": {"uv": [14, 6, 15, 7], "texture": "#28"},
				"south": {"uv": [11, 5, 13, 6], "texture": "#28"},
				"west": {"uv": [14, 7, 15, 8], "texture": "#28"},
				"up": {"uv": [13, 7, 11, 6], "texture": "#28"},
				"down": {"uv": [13, 7, 11, 8], "texture": "#28"}
			}
		},
		{
			"name": "octagon",
			"from": [7.13469, 1.18658, 4.66785],
			"to": [8.86531, 1.90342, 5.98127],
			"rotation": {"angle": 0, "axis": "y", "origin": [8, 8.64053, 6.39102]},
			"faces": {
				"north": {"uv": [11, 8, 13, 9], "texture": "#28"},
				"east": {"uv": [14, 8, 15, 9], "texture": "#28"},
				"south": {"uv": [0, 12, 2, 13], "texture": "#28"},
				"west": {"uv": [14, 9, 15, 10], "texture": "#28"},
				"up": {"uv": [4, 13, 2, 12], "texture": "#28"},
				"down": {"uv": [6, 12, 4, 13], "texture": "#28"}
			}
		},
		{
			"name": "octagon",
			"from": [2.94851, 2.68476, 5.93578],
			"to": [3.62213, 4.31101, 7.02583],
			"rotation": {"angle": 45, "axis": "z", "origin": [8, 8.21256, 6.6367]},
			"faces": {
				"north": {"uv": [12, 12, 13, 14], "texture": "#28"},
				"east": {"uv": [12, 0, 13, 2], "texture": "#28"},
				"south": {"uv": [12, 2, 13, 4], "texture": "#28"},
				"west": {"uv": [12, 9, 13, 11], "texture": "#28"},
				"up": {"uv": [15, 11, 14, 10], "texture": "#28"},
				"down": {"uv": [15, 11, 14, 12], "texture": "#28"}
			}
		},
		{
			"name": "octagon",
			"from": [7.66319, 0.73188, 5.93578],
			"to": [8.33681, 2.35812, 7.02583],
			"rotation": {"angle": 0, "axis": "y", "origin": [8, 8.21256, 6.6367]},
			"faces": {
				"north": {"uv": [0, 13, 1, 15], "texture": "#28"},
				"east": {"uv": [1, 13, 2, 15], "texture": "#28"},
				"south": {"uv": [2, 13, 3, 15], "texture": "#28"},
				"west": {"uv": [3, 13, 4, 15], "texture": "#28"},
				"up": {"uv": [15, 13, 14, 12], "texture": "#28"},
				"down": {"uv": [1, 15, 0, 16], "texture": "#28"}
			}
		},
		{
			"name": "octagon",
			"from": [2.4722, 3.16108, 5.93578],
			"to": [4.09844, 3.83469, 7.02583],
			"rotation": {"angle": 45, "axis": "z", "origin": [8, 8.21256, 6.6367]},
			"faces": {
				"north": {"uv": [12, 4, 14, 5], "texture": "#28"},
				"east": {"uv": [1, 15, 2, 16], "texture": "#28"},
				"south": {"uv": [12, 11, 14, 12], "texture": "#28"},
				"west": {"uv": [2, 15, 3, 16], "texture": "#28"},
				"up": {"uv": [6, 14, 4, 13], "texture": "#28"},
				"down": {"uv": [8, 13, 6, 14], "texture": "#28"}
			}
		},
		{
			"name": "octagon",
			"from": [7.18688, 1.20819, 5.93578],
			"to": [8.81312, 1.88181, 7.02583],
			"rotation": {"angle": 0, "axis": "y", "origin": [8, 8.21256, 6.6367]},
			"faces": {
				"north": {"uv": [8, 13, 10, 14], "texture": "#28"},
				"east": {"uv": [3, 15, 4, 16], "texture": "#28"},
				"south": {"uv": [10, 13, 12, 14], "texture": "#28"},
				"west": {"uv": [4, 15, 5, 16], "texture": "#28"},
				"up": {"uv": [15, 14, 13, 13], "texture": "#28"},
				"down": {"uv": [15, 0, 13, 1], "texture": "#28"}
			}
		}
	],
	"display": {
		"thirdperson_righthand": {
			"rotation": [90, 0, 0],
			"translation": [0, 0, 3],
			"scale": [0.5, 0.5, 0.5]
		},
		"thirdperson_lefthand": {
			"rotation": [90, 0, 0],
			"translation": [0, 0, 3],
			"scale": [0.5, 0.5, 0.5]
		},
		"firstperson_righthand": {
			"rotation": [90, 0, 30]
		},
		"firstperson_lefthand": {
			"rotation": [90, 0, 30]
		},
		"fixed": {
			"rotation": [90, 45, 0],
			"translation": [1.25, -1.75, 6]
		},
				"ground": {
			"translation": [0, 4, 0]
		},
		"gui": {
			"rotation": [90, 0, 30],
			"translation": [-3, -4, 0]
		}
	}
}