{
  "type": "normal",
  "text": "Crashed or Abandoned Ships. On some planets you may find some crashed or abandoned ships. While quite unfortunate for the previous owners, if you find yourself low on parts or supplies you might find these invaluable. If you have an Interstitial Antenna, you maybe be able to pick up a distress signal transmitted from the ships, even though in most situations anyone requiring assistance will be long gone. Besides spare parts, these ship's computers may contain valuable knowledge like schematics, which can be used to unlock new ways to customise your timeship."
}