{
  "type": "normal",
  "text": "Abandoned timeships. Sometimes, when a timeship has been abandoned by its crew, its security systems may degrade, allowing its emotions to override these systems. A timeship which this has experienced this may accept tokens representing time or exploration. Some common examples include: Clocks, Compasses, Maps, Village Bells, Ender Pearls and Ender Eyes. When trying to find an abandoned timeship, it is helpful to remember that timeships will relay village bells with their own cloister bells, making them easy to locate the general area. For more fine-tuned locating, your standard Gallifreyan Pocket Watch detects space-time anomalies in rough radius of 20-30 metres. In addition to charming it, it is also possible to just rip the doors open by attaching a lead to a horse or other such animal. However, forcing it open may influence your timeship to despise you for your forceful demeanor, which can be an issue for you later on."
}