{
  "type": "normal",
  "text": "Refueler This activates your time-ship\u0027s refuling circuits, absorbing nearby time radiation (Artron) to use as fuel. Some places have more than others, especially places where the veil betwixt worlds is thin."
}