{
  "type": "minecraft:block",
  "pools": [
    {
      "name": "tardis:alabaster",
      "rolls": 1,
      "entries": [
        {
          "type": "minecraft:item",
          "name": "tardis:alabaster"
        }
      ]
    }
  ]
}