{
  "replace": false,
  "values": [
    "minecraft:brain_coral_block",
    "minecraft:brain_coral_fan",
    "minecraft:bubble_coral_block",
    "minecraft:bubble_coral_fan",
    "minecraft:fire_coral_block",
    "minecraft:fire_coral_fan",
    "minecraft:horn_coral_block",
    "minecraft:horn_coral_fan",
    "minecraft:tube_coral_block",
    "minecraft:tube_coral_fan"
  ]
}