{
  "type": "normal",
  "text": "Exterior Defence. Timeships generate a limited pressure shield at the interior doors when the Shield Generator is activated, which can block fluids from entering the capsule and stop entities from being sucked out into outer space."
}